FFTW n: 64 FFTW_ESTIMATE plan: 1.49608 exec: min= 0.00095 max= 0.00191 avg= 0.00081 (ms) | iteration 5
FFTW n: 64 FFTW_MEASURE plan: 27.03404 exec: min= 0.00095 max= 0.00095 avg= 0.00019 (ms) | iteration 5
FFTW n: 64 FFTW_PATIENCE plan: 56.41103 exec: min= 0.00095 max= 0.00095 avg= 0.00019 (ms) | iteration 5
FFTW n: 64 FFTW_EXHAUST plan: 1546.23008 exec: min= 0.00095 max= 0.00095 avg= 0.00019 (ms) | iteration 5
FFTW n: 128 FFTW_ESTIMATE plan: 1.12605 exec: min= 0.00095 max= 0.00215 avg= 0.00100 (ms) | iteration 5
FFTW n: 128 FFTW_MEASURE plan: 45.74394 exec: min= 0.00095 max= 0.00095 avg= 0.00038 (ms) | iteration 5
FFTW n: 128 FFTW_PATIENCE plan: 143.11600 exec: min= 0.00095 max= 0.00119 avg= 0.00062 (ms) | iteration 5
FFTW n: 128 FFTW_EXHAUST plan: 2946.74492 exec: min= 0.00095 max= 0.00119 avg= 0.00043 (ms) | iteration 5
FFTW n: 256 FFTW_ESTIMATE plan: 0.82397 exec: min= 0.00095 max= 0.00215 avg= 0.00100 (ms) | iteration 5
FFTW n: 256 FFTW_MEASURE plan: 66.30111 exec: min= 0.00095 max= 0.00119 avg= 0.00062 (ms) | iteration 5
FFTW n: 256 FFTW_PATIENCE plan: 320.04714 exec: min= 0.00095 max= 0.00095 avg= 0.00057 (ms) | iteration 5
FFTW n: 256 FFTW_EXHAUST plan: 4643.20612 exec: min= 0.00095 max= 0.00119 avg= 0.00062 (ms) | iteration 5
FFTW n: 512 FFTW_ESTIMATE plan: 1.13201 exec: min= 0.00191 max= 0.00405 avg= 0.00281 (ms) | iteration 5
FFTW n: 512 FFTW_MEASURE plan: 95.61992 exec: min= 0.00095 max= 0.00119 avg= 0.00100 (ms) | iteration 5
FFTW n: 512 FFTW_PATIENCE plan: 566.60104 exec: min= 0.00191 max= 0.00310 avg= 0.00238 (ms) | iteration 5
FFTW n: 512 FFTW_EXHAUST plan: 6853.75690 exec: min= 0.00191 max= 0.00286 avg= 0.00238 (ms) | iteration 5
FFTW n: 1024 FFTW_ESTIMATE plan: 1.07813 exec: min= 0.00501 max= 0.01597 avg= 0.00882 (ms) | iteration 5
FFTW n: 1024 FFTW_MEASURE plan: 133.64100 exec: min= 0.00286 max= 0.00620 avg= 0.00463 (ms) | iteration 5
FFTW n: 1024 FFTW_PATIENCE plan: 936.01799 exec: min= 0.00286 max= 0.00596 avg= 0.00381 (ms) | iteration 5
FFTW n: 1024 FFTW_EXHAUST plan: 9733.26588 exec: min= 0.00215 max= 0.00501 avg= 0.00358 (ms) | iteration 5
FFTW n: 2048 FFTW_ESTIMATE plan: 0.84305 exec: min= 0.01383 max= 0.02313 avg= 0.01702 (ms) | iteration 5
FFTW n: 2048 FFTW_MEASURE plan: 170.41206 exec: min= 0.00691 max= 0.01001 avg= 0.00782 (ms) | iteration 5
FFTW n: 2048 FFTW_PATIENCE plan: 1515.67197 exec: min= 0.00691 max= 0.01097 avg= 0.00820 (ms) | iteration 5
FFTW n: 2048 FFTW_EXHAUST plan: 13478.65701 exec: min= 0.00691 max= 0.01097 avg= 0.00820 (ms) | iteration 5
FFTW n: 4096 FFTW_ESTIMATE plan: 0.94795 exec: min= 0.02098 max= 0.05889 avg= 0.02995 (ms) | iteration 5
FFTW n: 4096 FFTW_MEASURE plan: 235.39686 exec: min= 0.01693 max= 0.02098 avg= 0.01817 (ms) | iteration 5
FFTW n: 4096 FFTW_PATIENCE plan: 2371.25897 exec: min= 0.01597 max= 0.01907 avg= 0.01702 (ms) | iteration 5
FFTW n: 4096 FFTW_EXHAUST plan: 23815.92417 exec: min= 0.01597 max= 0.02003 avg= 0.01783 (ms) | iteration 5
FFTW n: 8192 FFTW_ESTIMATE plan: 2.63405 exec: min= 0.04792 max= 0.14782 avg= 0.06895 (ms) | iteration 5
FFTW n: 8192 FFTW_MEASURE plan: 329.85497 exec: min= 0.03695 max= 0.04292 avg= 0.03982 (ms) | iteration 5
FFTW n: 8192 FFTW_PATIENCE plan: 3772.44806 exec: min= 0.03600 max= 0.04005 avg= 0.03738 (ms) | iteration 5
FFTW n: 8192 FFTW_EXHAUST plan: 31829.17690 exec: min= 0.03505 max= 0.04101 avg= 0.03781 (ms) | iteration 5
FFTW n: 16384 FFTW_ESTIMATE plan: 2.02298 exec: min= 0.19097 max= 0.24796 avg= 0.20237 (ms) | iteration 5
FFTW n: 16384 FFTW_MEASURE plan: 470.61610 exec: min= 0.08798 max= 0.09203 avg= 0.08960 (ms) | iteration 5
FFTW n: 16384 FFTW_PATIENCE plan: 6371.72794 exec: min= 0.08202 max= 0.08702 avg= 0.08402 (ms) | iteration 5
FFTW n: 16384 FFTW_EXHAUST plan: 51371.74606 exec: min= 0.08202 max= 0.08607 avg= 0.08402 (ms) | iteration 5
FFTW n: 32768 FFTW_ESTIMATE plan: 2.22516 exec: min= 0.23699 max= 0.64898 avg= 0.32520 (ms) | iteration 5
FFTW n: 32768 FFTW_MEASURE plan: 716.35604 exec: min= 0.19503 max= 0.19908 avg= 0.19684 (ms) | iteration 5
FFTW n: 32768 FFTW_PATIENCE plan: 11683.08091 exec: min= 0.19002 max= 0.19503 avg= 0.19202 (ms) | iteration 5
FFTW n: 32768 FFTW_EXHAUST plan: 76855.41582 exec: min= 0.18787 max= 0.19217 avg= 0.18983 (ms) | iteration 5
FFTW n: 65536 FFTW_ESTIMATE plan: 2.63000 exec: min= 0.53406 max= 1.46008 avg= 0.72842 (ms) | iteration 5
FFTW n: 65536 FFTW_MEASURE plan: 1530.26104 exec: min= 0.41699 max= 0.46086 avg= 0.42658 (ms) | iteration 5
FFTW n: 65536 FFTW_PATIENCE plan: 25030.37095 exec: min= 0.40984 max= 0.42510 avg= 0.41499 (ms) | iteration 5
FFTW n: 65536 FFTW_EXHAUST plan: 128876.89614 exec: min= 0.41199 max= 0.44703 avg= 0.42582 (ms) | iteration 5
FFTW n: 131072 FFTW_ESTIMATE plan: 3.05700 exec: min= 1.43194 max= 2.86007 avg= 1.76845 (ms) | iteration 5
FFTW n: 131072 FFTW_MEASURE plan: 2812.56199 exec: min= 0.97799 max= 1.16611 avg= 1.09262 (ms) | iteration 5
FFTW n: 131072 FFTW_PATIENCE plan: 50548.16198 exec: min= 0.94509 max= 1.05119 avg= 1.00121 (ms) | iteration 5
FFTW n: 131072 FFTW_EXHAUST plan: 208614.63809 exec: min= 0.94485 max= 1.09982 avg= 0.99916 (ms) | iteration 5
FFTW n: 262144 FFTW_ESTIMATE plan: 4.56309 exec: min= 4.00901 max= 8.86989 avg= 5.17116 (ms) | iteration 5
FFTW n: 262144 FFTW_MEASURE plan: 6722.09001 exec: min= 3.04008 max= 3.26800 avg= 3.13439 (ms) | iteration 5
FFTW n: 262144 FFTW_PATIENCE plan: 122717.90004 exec: min= 2.64096 max= 2.74491 avg= 2.66981 (ms) | iteration 5
FFTW n: 262144 FFTW_EXHAUST plan: 427131.44708 exec: min= 2.68507 max= 2.83694 avg= 2.74301 (ms) | iteration 5
FFTW n: 524288 FFTW_ESTIMATE plan: 27.01592 exec: min= 12.91895 max= 16.06917 avg= 13.59363 (ms) | iteration 5
FFTW n: 524288 FFTW_MEASURE plan: 2329.45395 exec: min= 8.60190 max= 9.00292 avg= 8.74877 (ms) | iteration 5
FFTW n: 524288 FFTW_PATIENCE plan: 300341.05206 exec: min= 6.42800 max= 6.60801 avg= 6.51040 (ms) | iteration 5
FFTW n: 524288 FFTW_EXHAUST plan: 913407.43709 exec: min= 6.43802 max= 6.61802 avg= 6.50401 (ms) | iteration 5
FFTW n: 1048576 FFTW_ESTIMATE plan: 33.24580 exec: min= 29.99806 max= 34.36089 avg= 30.90119 (ms) | iteration 5
FFTW n: 1048576 FFTW_MEASURE plan: 5863.72399 exec: min= 18.45717 max= 19.02199 avg= 18.78643 (ms) | iteration 5
FFTW n: 1048576 FFTW_PATIENCE plan: 723929.18897 exec: min= 15.20205 max= 15.80882 avg= 15.59820 (ms) | iteration 5
FFTW n: 1048576 FFTW_EXHAUST plan: 2090925.14110 exec: min= 15.10692 max= 15.21683 avg= 15.16662 (ms) | iteration 5
FFTW n: 2097152 FFTW_ESTIMATE plan: 33.85615 exec: min= 67.70205 max= 74.67294 avg= 69.11840 (ms) | iteration 5
FFTW n: 2097152 FFTW_MEASURE plan: 8552.25301 exec: min= 38.87916 max= 46.75508 avg= 41.05325 (ms) | iteration 5
FFTW n: 2097152 FFTW_PATIENCE plan: 1582475.47698 exec: min= 33.01597 max= 33.69403 avg= 33.33120 (ms) | iteration 5
FFTW n: 2097152 FFTW_EXHAUST plan: 4589781.66914 exec: min= 32.73296 max= 33.47206 avg= 33.10761 (ms) | iteration 5
FFTW n: 4194304 FFTW_ESTIMATE plan: 39.77513 exec: min= 180.23396 max= 194.46707 avg= 183.30941 (ms) | iteration 5
FFTW n: 4194304 FFTW_MEASURE plan: 23655.47490 exec: min= 82.07488 max= 82.28707 avg= 82.18398 (ms) | iteration 5
FFTW n: 4194304 FFTW_PATIENCE plan: 3487513.57198 exec: min= 70.53399 max= 73.32206 avg= 71.57083 (ms) | iteration 5
FFTW n: 4194304 FFTW_EXHAUST plan: 10245236.16982 exec: min= 71.13600 max= 71.59901 avg= 71.33780 (ms) | iteration 5
FFTW n: 8388608 FFTW_ESTIMATE plan: 29.92296 exec: min= 424.02577 max= 451.94101 avg= 429.88720 (ms) | iteration 5
FFTW n: 8388608 FFTW_MEASURE plan: 36477.13494 exec: min= 170.09497 max= 174.41988 avg= 171.89174 (ms) | iteration 5
FFTW n: 8388608 FFTW_PATIENCE plan: 7406104.72798 exec: min= 150.04206 max= 150.67816 avg= 150.28324 (ms) | iteration 5
FFTW n: 8388608 FFTW_EXHAUST plan: 22198430.62997 exec: min= 150.16890 max= 154.84786 avg= 152.24776 (ms) | iteration 5
