[     0s]    INFO OpenTunerToolLocus: Run cfg_id: 1 time: 6015.76018 cc: X cfg: 9: tileI = 128, 15: tileK = 4, 21: tileJ = 2, 69: sche = static, 75: chu = 13, 93: OrBlock = 1
[     0s]    INFO OpenTunerToolLocus: Run cfg_id: 2 time: 751.03498 cc: X cfg: 9: tileI = 16, 15: tileK = 64, 21: tileJ = 128, 69: sche = dynamic, 75: chu = 26, 93: OrBlock = 0
[     0s]    INFO OpenTunerToolLocus: Run cfg_id: 7 time: 713.31382 cc: X cfg: 9: tileI = 256, 15: tileK = 64, 21: tileJ = 128, 69: sche = dynamic, 75: chu = 31, 93: OrBlock = 0
[     0s]    INFO OpenTunerToolLocus: Run cfg_id: 8 time: 2778.34415 cc: X cfg: 9: tileI = 64, 15: tileK = 16, 21: tileJ = 2, 69: sche = dynamic, 75: chu = 5, 93: OrBlock = 0
[     0s]    INFO OpenTunerToolLocus: Run cfg_id: 38 time: 1435.9498 cc: X cfg: 9: tileI = 256, 15: tileK = 64, 21: tileJ = 128, 69: sche = dynamic, 75: chu = 31, 93: OrBlock = 1
[     0s]    INFO OpenTunerToolLocus: Run cfg_id: 39 time: 716.1231 cc: X cfg: 9: tileI = 256, 15: tileK = 64, 21: tileJ = 128, 69: sche = static, 75: chu = 31, 93: OrBlock = 0
[     0s]    INFO OpenTunerToolLocus: Run cfg_id: 3 time: 831.76398 cc: X cfg: 9: tileI = 8, 15: tileK = 64, 21: tileJ = 512, 69: sche = dynamic, 75: chu = 8, 93: OrBlock = 0
[     0s]    INFO OpenTunerToolLocus: Run cfg_id: 40 time: 701.40505 cc: X cfg: 9: tileI = 256, 15: tileK = 32, 21: tileJ = 128, 69: sche = dynamic, 75: chu = 31, 93: OrBlock = 0
[     0s]    INFO OpenTunerToolLocus: Run cfg_id: 41 time: 718.16206 cc: X cfg: 9: tileI = 128, 15: tileK = 32, 21: tileJ = 256, 69: sche = static, 75: chu = 32, 93: OrBlock = 0
[     0s]    INFO OpenTunerToolLocus: Run cfg_id: 42 time: 716.1119 cc: X cfg: 9: tileI = 512, 15: tileK = 32, 21: tileJ = 128, 69: sche = static, 75: chu = 31, 93: OrBlock = 0
[     0s]    INFO OpenTunerToolLocus: Run cfg_id: 43 time: 1703.84502 cc: X cfg: 9: tileI = 512, 15: tileK = 32, 21: tileJ = 4, 69: sche = dynamic, 75: chu = 27, 93: OrBlock = 0
[     0s]    INFO OpenTunerToolLocus: Run cfg_id: 4 time: 998.8091 cc: X cfg: 9: tileI = 32, 15: tileK = 16, 21: tileJ = 32, 69: sche = dynamic, 75: chu = 21, 93: OrBlock = 1
[     0s]    INFO OpenTunerToolLocus: Run cfg_id: 44 time: 714.60295 cc: X cfg: 9: tileI = 128, 15: tileK = 32, 21: tileJ = 128, 69: sche = dynamic, 75: chu = 31, 93: OrBlock = 0
[     0s]    INFO OpenTunerToolLocus: Run cfg_id: 45 time: 700.86503 cc: X cfg: 9: tileI = 256, 15: tileK = 128, 21: tileJ = 256, 69: sche = dynamic, 75: chu = 31, 93: OrBlock = 0
[     0s]    INFO OpenTunerToolLocus: Run cfg_id: 46 time: 719.21301 cc: X cfg: 9: tileI = 512, 15: tileK = 128, 21: tileJ = 256, 69: sche = dynamic, 75: chu = 27, 93: OrBlock = 0
[     0s]    INFO OpenTunerToolLocus: Run cfg_id: 47 time: 726.82595 cc: X cfg: 9: tileI = 128, 15: tileK = 64, 21: tileJ = 256, 69: sche = dynamic, 75: chu = 31, 93: OrBlock = 0
[     0s]    INFO OpenTunerToolLocus: Run cfg_id: 48 time: 702.68798 cc: X cfg: 9: tileI = 256, 15: tileK = 128, 21: tileJ = 256, 69: sche = dynamic, 75: chu = 28, 93: OrBlock = 0
[     0s]    INFO OpenTunerToolLocus: Run cfg_id: 5 time: 2889.13107 cc: X cfg: 9: tileI = 4, 15: tileK = 32, 21: tileJ = 2, 69: sche = static, 75: chu = 30, 93: OrBlock = 0
[     0s]    INFO OpenTunerToolLocus: Run cfg_id: 49 time: 702.29602 cc: X cfg: 9: tileI = 256, 15: tileK = 128, 21: tileJ = 256, 69: sche = dynamic, 75: chu = 25, 93: OrBlock = 0
[     0s]    INFO OpenTunerToolLocus: Run cfg_id: 50 time: 1392.75098 cc: X cfg: 9: tileI = 256, 15: tileK = 128, 21: tileJ = 256, 69: sche = dynamic, 75: chu = 31, 93: OrBlock = 1
[     0s]    INFO OpenTunerToolLocus: Run cfg_id: 51 time: 1394.36984 cc: X cfg: 9: tileI = 256, 15: tileK = 512, 21: tileJ = 256, 69: sche = dynamic, 75: chu = 29, 93: OrBlock = 1
[     0s]    INFO OpenTunerToolLocus: Run cfg_id: 52 time: 702.68893 cc: X cfg: 9: tileI = 256, 15: tileK = 128, 21: tileJ = 256, 69: sche = dynamic, 75: chu = 26, 93: OrBlock = 0
[     0s]    INFO OpenTunerToolLocus: Run cfg_id: 53 time: 701.14303 cc: X cfg: 9: tileI = 256, 15: tileK = 128, 21: tileJ = 256, 69: sche = dynamic, 75: chu = 12, 93: OrBlock = 0
[     0s]    INFO OpenTunerToolLocus: Run cfg_id: 6 time: 1232.92899 cc: X cfg: 9: tileI = 64, 15: tileK = 32, 21: tileJ = 64, 69: sche = dynamic, 75: chu = 28, 93: OrBlock = 1
[     0s]    INFO OpenTunerToolLocus: Run cfg_id: 54 time: 693.44807 cc: X cfg: 9: tileI = 256, 15: tileK = 256, 21: tileJ = 512, 69: sche = static, 75: chu = 31, 93: OrBlock = 0
[     0s]    INFO OpenTunerToolLocus: Run cfg_id: 55 time: 1384.42087 cc: X cfg: 9: tileI = 256, 15: tileK = 256, 21: tileJ = 512, 69: sche = static, 75: chu = 31, 93: OrBlock = 1
[     0s]    INFO OpenTunerToolLocus: Run cfg_id: 56 time: 695.24193 cc: X cfg: 9: tileI = 256, 15: tileK = 256, 21: tileJ = 512, 69: sche = static, 75: chu = 27, 93: OrBlock = 0
[     0s]    INFO OpenTunerToolLocus: Run cfg_id: 57 time: 696.64216 cc: X cfg: 9: tileI = 128, 15: tileK = 256, 21: tileJ = 512, 69: sche = static, 75: chu = 31, 93: OrBlock = 0
[     0s]    INFO OpenTunerToolLocus: Run cfg_id: 58 time: 699.03111 cc: X cfg: 9: tileI = 256, 15: tileK = 256, 21: tileJ = 256, 69: sche = static, 75: chu = 31, 93: OrBlock = 0
[     0s]    INFO OpenTunerToolLocus: Run cfg_id: 59 time: 712.54778 cc: X cfg: 9: tileI = 256, 15: tileK = 128, 21: tileJ = 128, 69: sche = static, 75: chu = 31, 93: OrBlock = 0
[     0s]    INFO OpenTunerToolLocus: Run cfg_id: 60 time: 1483.248 cc: X cfg: 9: tileI = 256, 15: tileK = 256, 21: tileJ = 128, 69: sche = dynamic, 75: chu = 27, 93: OrBlock = 1
[     0s]    INFO OpenTunerToolLocus: Run cfg_id: 9 time: 692.72399 cc: X cfg: 9: tileI = 512, 15: tileK = 512, 21: tileJ = 512, 69: sche = dynamic, 75: chu = 10, 93: OrBlock = 0
[     0s]    INFO OpenTunerToolLocus: Run cfg_id: 10 time: 4119.11607 cc: X cfg: 9: tileI = 32, 15: tileK = 4, 21: tileJ = 2, 69: sche = static, 75: chu = 7, 93: OrBlock = 1
[     0s]    INFO OpenTunerToolLocus: Run cfg_id: 11 time: 1667.61494 cc: X cfg: 9: tileI = 2, 15: tileK = 8, 21: tileJ = 512, 69: sche = static, 75: chu = 26, 93: OrBlock = 0
[     0s]    INFO OpenTunerToolLocus: Run cfg_id: 12 time: 652.02117 cc: X cfg: 9: tileI = 512, 15: tileK = 64, 21: tileJ = 64, 69: sche = dynamic, 75: chu = 29, 93: OrBlock = 0
[     0s]    INFO OpenTunerToolLocus: Run cfg_id: 13 time: 1106.12798 cc: X cfg: 9: tileI = 8, 15: tileK = 256, 21: tileJ = 32, 69: sche = static, 75: chu = 28, 93: OrBlock = 0
[     0s]    INFO OpenTunerToolLocus: Run cfg_id: 14 time: 3215.50202 cc: X cfg: 9: tileI = 64, 15: tileK = 256, 21: tileJ = 4, 69: sche = static, 75: chu = 29, 93: OrBlock = 1
[     0s]    INFO OpenTunerToolLocus: Run cfg_id: 15 time: 1730.26705 cc: X cfg: 9: tileI = 8, 15: tileK = 2, 21: tileJ = 8, 69: sche = dynamic, 75: chu = 23, 93: OrBlock = 0
[     0s]    INFO OpenTunerToolLocus: Run cfg_id: 16 time: 3869.23385 cc: X cfg: 9: tileI = 2, 15: tileK = 128, 21: tileJ = 2, 69: sche = dynamic, 75: chu = 11, 93: OrBlock = 1
[     0s]    INFO OpenTunerToolLocus: Run cfg_id: 17 time: 751.12796 cc: X cfg: 9: tileI = 32, 15: tileK = 32, 21: tileJ = 16, 69: sche = static, 75: chu = 3, 93: OrBlock = 0
[     0s]    INFO OpenTunerToolLocus: Run cfg_id: 18 time: 694.98277 cc: X cfg: 9: tileI = 64, 15: tileK = 32, 21: tileJ = 64, 69: sche = static, 75: chu = 19, 93: OrBlock = 0
[     0s]    INFO OpenTunerToolLocus: Run cfg_id: 61 time: 635.78796 cc: X cfg: 9: tileI = 512, 15: tileK = 256, 21: tileJ = 64, 69: sche = dynamic, 75: chu = 29, 93: OrBlock = 0
[     0s]    INFO OpenTunerToolLocus: Run cfg_id: 62 time: 1254.83179 cc: X cfg: 9: tileI = 512, 15: tileK = 256, 21: tileJ = 64, 69: sche = dynamic, 75: chu = 32, 93: OrBlock = 1
[     0s]    INFO OpenTunerToolLocus: Run cfg_id: 63 time: 1442.80696 cc: X cfg: 9: tileI = 512, 15: tileK = 256, 21: tileJ = 128, 69: sche = dynamic, 75: chu = 22, 93: OrBlock = 1
[     0s]    INFO OpenTunerToolLocus: Run cfg_id: 64 time: 640.61189 cc: X cfg: 9: tileI = 512, 15: tileK = 256, 21: tileJ = 64, 69: sche = dynamic, 75: chu = 26, 93: OrBlock = 0
[     0s]    INFO OpenTunerToolLocus: Run cfg_id: 65 time: 418.56408 cc: X cfg: 9: tileI = 512, 15: tileK = 256, 21: tileJ = 32, 69: sche = dynamic, 75: chu = 29, 93: OrBlock = 0
[     0s]    INFO OpenTunerToolLocus: Run cfg_id: 66 time: 814.0409 cc: X cfg: 9: tileI = 512, 15: tileK = 256, 21: tileJ = 32, 69: sche = dynamic, 75: chu = 31, 93: OrBlock = 1
[     0s]    INFO OpenTunerToolLocus: Run cfg_id: 67 time: 596.16303 cc: X cfg: 9: tileI = 512, 15: tileK = 32, 21: tileJ = 32, 69: sche = static, 75: chu = 29, 93: OrBlock = 0
[     0s]    INFO OpenTunerToolLocus: Run cfg_id: 68 time: 816.67304 cc: X cfg: 9: tileI = 512, 15: tileK = 256, 21: tileJ = 32, 69: sche = dynamic, 75: chu = 28, 93: OrBlock = 1
[     0s]    INFO OpenTunerToolLocus: Run cfg_id: 69 time: 428.80416 cc: X cfg: 9: tileI = 512, 15: tileK = 256, 21: tileJ = 32, 69: sche = static, 75: chu = 29, 93: OrBlock = 0
[     0s]    INFO OpenTunerToolLocus: Run cfg_id: 70 time: 419.06214 cc: X cfg: 9: tileI = 512, 15: tileK = 256, 21: tileJ = 32, 69: sche = dynamic, 75: chu = 28, 93: OrBlock = 0
[     0s]    INFO OpenTunerToolLocus: Run cfg_id: 71 time: 414.90316 cc: X cfg: 9: tileI = 256, 15: tileK = 256, 21: tileJ = 32, 69: sche = dynamic, 75: chu = 29, 93: OrBlock = 0
[     0s]    INFO OpenTunerToolLocus: Run cfg_id: 72 time: 431.42509 cc: X cfg: 9: tileI = 128, 15: tileK = 256, 21: tileJ = 32, 69: sche = static, 75: chu = 29, 93: OrBlock = 0
[     0s]    INFO OpenTunerToolLocus: Run cfg_id: 73 time: 408.63514 cc: X cfg: 9: tileI = 256, 15: tileK = 128, 21: tileJ = 32, 69: sche = dynamic, 75: chu = 27, 93: OrBlock = 0
[     0s]    INFO OpenTunerToolLocus: Run cfg_id: 74 time: 822.48306 cc: X cfg: 9: tileI = 256, 15: tileK = 128, 21: tileJ = 32, 69: sche = dynamic, 75: chu = 27, 93: OrBlock = 1
[     0s]    INFO OpenTunerToolLocus: Run cfg_id: 75 time: 429.40307 cc: X cfg: 9: tileI = 256, 15: tileK = 128, 21: tileJ = 32, 69: sche = static, 75: chu = 27, 93: OrBlock = 0
[     0s]    INFO OpenTunerToolLocus: Run cfg_id: 76 time: 462.24618 cc: X cfg: 9: tileI = 256, 15: tileK = 128, 21: tileJ = 16, 69: sche = dynamic, 75: chu = 27, 93: OrBlock = 0
[     0s]    INFO OpenTunerToolLocus: Run cfg_id: 77 time: 638.96298 cc: X cfg: 9: tileI = 512, 15: tileK = 128, 21: tileJ = 64, 69: sche = static, 75: chu = 27, 93: OrBlock = 0
[     0s]    INFO OpenTunerToolLocus: Run cfg_id: 78 time: 851.32408 cc: X cfg: 9: tileI = 256, 15: tileK = 128, 21: tileJ = 32, 69: sche = static, 75: chu = 27, 93: OrBlock = 1
[     0s]    INFO OpenTunerToolLocus: Run cfg_id: 79 time: 631.62398 cc: X cfg: 9: tileI = 256, 15: tileK = 128, 21: tileJ = 64, 69: sche = static, 75: chu = 27, 93: OrBlock = 0
[     0s]    INFO OpenTunerToolLocus: Run cfg_id: 80 time: 652.02379 cc: X cfg: 9: tileI = 256, 15: tileK = 32, 21: tileJ = 64, 69: sche = dynamic, 75: chu = 27, 93: OrBlock = 0
[     0s]    INFO OpenTunerToolLocus: Run cfg_id: 81 time: 408.51498 cc: X cfg: 9: tileI = 256, 15: tileK = 128, 21: tileJ = 32, 69: sche = dynamic, 75: chu = 26, 93: OrBlock = 0
[     0s]    INFO OpenTunerToolLocus: Run cfg_id: 82 time: 425.34208 cc: X cfg: 9: tileI = 512, 15: tileK = 128, 21: tileJ = 32, 69: sche = dynamic, 75: chu = 23, 93: OrBlock = 0
[     0s]    INFO OpenTunerToolLocus: Run cfg_id: 83 time: 435.49895 cc: X cfg: 9: tileI = 128, 15: tileK = 128, 21: tileJ = 32, 69: sche = dynamic, 75: chu = 26, 93: OrBlock = 0
[     0s]    INFO OpenTunerToolLocus: Run cfg_id: 84 time: 405.31087 cc: X cfg: 9: tileI = 256, 15: tileK = 64, 21: tileJ = 32, 69: sche = dynamic, 75: chu = 26, 93: OrBlock = 0
[     0s]    INFO OpenTunerToolLocus: Run cfg_id: 85 time: 535.77495 cc: X cfg: 9: tileI = 256, 15: tileK = 32, 21: tileJ = 32, 69: sche = dynamic, 75: chu = 26, 93: OrBlock = 0
[     0s]    INFO OpenTunerToolLocus: Run cfg_id: 86 time: 449.94402 cc: X cfg: 9: tileI = 512, 15: tileK = 64, 21: tileJ = 32, 69: sche = dynamic, 75: chu = 26, 93: OrBlock = 0
[     0s]    INFO OpenTunerToolLocus: Run cfg_id: 87 time: 420.65001 cc: X cfg: 9: tileI = 256, 15: tileK = 64, 21: tileJ = 32, 69: sche = dynamic, 75: chu = 23, 93: OrBlock = 0
[     0s]    INFO OpenTunerToolLocus: Run cfg_id: 88 time: 413.94496 cc: X cfg: 9: tileI = 256, 15: tileK = 64, 21: tileJ = 32, 69: sche = dynamic, 75: chu = 24, 93: OrBlock = 0
[     0s]    INFO OpenTunerToolLocus: Run cfg_id: 89 time: 1061.42807 cc: X cfg: 9: tileI = 256, 15: tileK = 32, 21: tileJ = 32, 69: sche = dynamic, 75: chu = 26, 93: OrBlock = 1
[     0s]    INFO OpenTunerToolLocus: Run cfg_id: 90 time: 412.82392 cc: X cfg: 9: tileI = 256, 15: tileK = 256, 21: tileJ = 32, 69: sche = static, 75: chu = 31, 93: OrBlock = 0
[     0s]    INFO OpenTunerToolLocus: Run cfg_id: 91 time: 1055.41801 cc: X cfg: 9: tileI = 256, 15: tileK = 64, 21: tileJ = 16, 69: sche = dynamic, 75: chu = 29, 93: OrBlock = 1
[     0s]    INFO OpenTunerToolLocus: Run cfg_id: 92 time: 545.26401 cc: X cfg: 9: tileI = 256, 15: tileK = 64, 21: tileJ = 16, 69: sche = dynamic, 75: chu = 26, 93: OrBlock = 0
[     0s]    INFO OpenTunerToolLocus: Run cfg_id: 93 time: 423.85983 cc: X cfg: 9: tileI = 512, 15: tileK = 64, 21: tileJ = 32, 69: sche = dynamic, 75: chu = 31, 93: OrBlock = 0
[     0s]    INFO OpenTunerToolLocus: Run cfg_id: 94 time: 440.45806 cc: X cfg: 9: tileI = 128, 15: tileK = 64, 21: tileJ = 32, 69: sche = dynamic, 75: chu = 26, 93: OrBlock = 0
[     0s]    INFO OpenTunerToolLocus: Run cfg_id: 95 time: 419.5621 cc: X cfg: 9: tileI = 256, 15: tileK = 256, 21: tileJ = 32, 69: sche = dynamic, 75: chu = 26, 93: OrBlock = 0
[     0s]    INFO OpenTunerToolLocus: Run cfg_id: 96 time: 642.30299 cc: X cfg: 9: tileI = 256, 15: tileK = 64, 21: tileJ = 64, 69: sche = dynamic, 75: chu = 26, 93: OrBlock = 0
[     0s]    INFO OpenTunerToolLocus: Run cfg_id: 19 time: 711.62701 cc: X cfg: 9: tileI = 128, 15: tileK = 32, 21: tileJ = 128, 69: sche = static, 75: chu = 12, 93: OrBlock = 0
[     0s]    INFO OpenTunerToolLocus: Run cfg_id: 97 time: 635.35595 cc: X cfg: 9: tileI = 256, 15: tileK = 128, 21: tileJ = 64, 69: sche = static, 75: chu = 26, 93: OrBlock = 0
[     0s]    INFO OpenTunerToolLocus: Run cfg_id: 98 time: 405.14112 cc: X cfg: 9: tileI = 256, 15: tileK = 64, 21: tileJ = 32, 69: sche = dynamic, 75: chu = 29, 93: OrBlock = 0
[     0s]    INFO OpenTunerToolLocus: Run cfg_id: 99 time: 424.12305 cc: X cfg: 9: tileI = 512, 15: tileK = 64, 21: tileJ = 32, 69: sche = dynamic, 75: chu = 29, 93: OrBlock = 0
[     0s]    INFO OpenTunerToolLocus: Run cfg_id: 100 time: 424.05701 cc: X cfg: 9: tileI = 128, 15: tileK = 64, 21: tileJ = 32, 69: sche = dynamic, 75: chu = 29, 93: OrBlock = 0
[     0s]    INFO OpenTunerToolLocus: Run cfg_id: 101 time: 408.42605 cc: X cfg: 9: tileI = 256, 15: tileK = 128, 21: tileJ = 32, 69: sche = dynamic, 75: chu = 29, 93: OrBlock = 0
[     0s]    INFO OpenTunerToolLocus: Run cfg_id: 102 time: 1610.64506 cc: X cfg: 9: tileI = 256, 15: tileK = 32, 21: tileJ = 8, 69: sche = dynamic, 75: chu = 29, 93: OrBlock = 0
[     0s]    INFO OpenTunerToolLocus: Run cfg_id: 103 time: 415.39001 cc: X cfg: 9: tileI = 512, 15: tileK = 128, 21: tileJ = 32, 69: sche = dynamic, 75: chu = 29, 93: OrBlock = 0
[     0s]    INFO OpenTunerToolLocus: Run cfg_id: 104 time: 706.3899 cc: X cfg: 9: tileI = 256, 15: tileK = 32, 21: tileJ = 512, 69: sche = static, 75: chu = 9, 93: OrBlock = 0
[     0s]    INFO OpenTunerToolLocus: Run cfg_id: 105 time: 405.21812 cc: X cfg: 9: tileI = 256, 15: tileK = 64, 21: tileJ = 32, 69: sche = static, 75: chu = 29, 93: OrBlock = 0
[     0s]    INFO OpenTunerToolLocus: Run cfg_id: 106 time: 427.82021 cc: X cfg: 9: tileI = 256, 15: tileK = 64, 21: tileJ = 32, 69: sche = static, 75: chu = 32, 93: OrBlock = 0
[     0s]    INFO OpenTunerToolLocus: Run cfg_id: 20 time: 1360.183 cc: X cfg: 9: tileI = 4, 15: tileK = 2, 21: tileJ = 64, 69: sche = static, 75: chu = 7, 93: OrBlock = 1
[     0s]    INFO OpenTunerToolLocus: Run cfg_id: 107 time: 639.05501 cc: X cfg: 9: tileI = 256, 15: tileK = 64, 21: tileJ = 64, 69: sche = dynamic, 75: chu = 29, 93: OrBlock = 0
[     0s]    INFO OpenTunerToolLocus: Run cfg_id: 108 time: 440.95778 cc: X cfg: 9: tileI = 128, 15: tileK = 64, 21: tileJ = 32, 69: sche = static, 75: chu = 28, 93: OrBlock = 0
[     0s]    INFO OpenTunerToolLocus: Run cfg_id: 109 time: 429.66604 cc: X cfg: 9: tileI = 256, 15: tileK = 64, 21: tileJ = 32, 69: sche = static, 75: chu = 28, 93: OrBlock = 0
[     0s]    INFO OpenTunerToolLocus: Run cfg_id: 21 time: 712.72516 cc: X cfg: 9: tileI = 64, 15: tileK = 64, 21: tileJ = 128, 69: sche = static, 75: chu = 18, 93: OrBlock = 0
[     0s]    INFO OpenTunerToolLocus: Run cfg_id: 110 time: 424.5441 cc: X cfg: 9: tileI = 128, 15: tileK = 128, 21: tileJ = 32, 69: sche = static, 75: chu = 31, 93: OrBlock = 0
[     0s]    INFO OpenTunerToolLocus: Run cfg_id: 111 time: 413.85794 cc: X cfg: 9: tileI = 256, 15: tileK = 64, 21: tileJ = 32, 69: sche = static, 75: chu = 26, 93: OrBlock = 0
[     0s]    INFO OpenTunerToolLocus: Run cfg_id: 112 time: 545.187 cc: X cfg: 9: tileI = 256, 15: tileK = 64, 21: tileJ = 16, 69: sche = static, 75: chu = 29, 93: OrBlock = 0
[     0s]    INFO OpenTunerToolLocus: Run cfg_id: 113 time: 713.52196 cc: X cfg: 9: tileI = 512, 15: tileK = 32, 21: tileJ = 512, 69: sche = static, 75: chu = 1, 93: OrBlock = 0
[     0s]    INFO OpenTunerToolLocus: Run cfg_id: 114 time: 839.94603 cc: X cfg: 9: tileI = 256, 15: tileK = 64, 21: tileJ = 32, 69: sche = static, 75: chu = 30, 93: OrBlock = 1
[     0s]    INFO OpenTunerToolLocus: Run cfg_id: 115 time: 537.96005 cc: X cfg: 9: tileI = 256, 15: tileK = 32, 21: tileJ = 32, 69: sche = static, 75: chu = 31, 93: OrBlock = 0
[     0s]    INFO OpenTunerToolLocus: Run cfg_id: 116 time: 636.62004 cc: X cfg: 9: tileI = 256, 15: tileK = 64, 21: tileJ = 64, 69: sche = static, 75: chu = 29, 93: OrBlock = 0
[     0s]    INFO OpenTunerToolLocus: Run cfg_id: 22 time: 719.81382 cc: X cfg: 9: tileI = 256, 15: tileK = 8, 21: tileJ = 64, 69: sche = dynamic, 75: chu = 6, 93: OrBlock = 0
[     0s]    INFO OpenTunerToolLocus: Run cfg_id: 117 time: 545.0449 cc: X cfg: 9: tileI = 128, 15: tileK = 32, 21: tileJ = 32, 69: sche = dynamic, 75: chu = 25, 93: OrBlock = 0
[     0s]    INFO OpenTunerToolLocus: Run cfg_id: 118 time: 543.71405 cc: X cfg: 9: tileI = 256, 15: tileK = 64, 21: tileJ = 16, 69: sche = dynamic, 75: chu = 29, 93: OrBlock = 0
[     0s]    INFO OpenTunerToolLocus: Run cfg_id: 119 time: 680.62091 cc: X cfg: 9: tileI = 256, 15: tileK = 16, 21: tileJ = 64, 69: sche = dynamic, 75: chu = 32, 93: OrBlock = 0
[     0s]    INFO OpenTunerToolLocus: Run cfg_id: 23 time: 713.43017 cc: X cfg: 9: tileI = 8, 15: tileK = 4, 21: tileJ = 16, 69: sche = static, 75: chu = 16, 93: OrBlock = 1
[     0s]    INFO OpenTunerToolLocus: Run cfg_id: 120 time: 841.06493 cc: X cfg: 9: tileI = 8, 15: tileK = 32, 21: tileJ = 512, 69: sche = static, 75: chu = 1, 93: OrBlock = 0
[     0s]    INFO OpenTunerToolLocus: Run cfg_id: 121 time: 820.20807 cc: X cfg: 9: tileI = 256, 15: tileK = 64, 21: tileJ = 32, 69: sche = dynamic, 75: chu = 29, 93: OrBlock = 1
[     0s]    INFO OpenTunerToolLocus: Run cfg_id: 122 time: 615.05103 cc: X cfg: 9: tileI = 512, 15: tileK = 64, 21: tileJ = 16, 69: sche = dynamic, 75: chu = 31, 93: OrBlock = 0
[     0s]    INFO OpenTunerToolLocus: Run cfg_id: 123 time: 412.00185 cc: X cfg: 9: tileI = 256, 15: tileK = 64, 21: tileJ = 32, 69: sche = dynamic, 75: chu = 20, 93: OrBlock = 0
[     0s]    INFO OpenTunerToolLocus: Run cfg_id: 124 time: 429.2078 cc: X cfg: 9: tileI = 256, 15: tileK = 64, 21: tileJ = 32, 69: sche = dynamic, 75: chu = 32, 93: OrBlock = 0
[     0s]    INFO OpenTunerToolLocus: Run cfg_id: 24 time: 1321.65098 cc: X cfg: 9: tileI = 64, 15: tileK = 16, 21: tileJ = 8, 69: sche = static, 75: chu = 19, 93: OrBlock = 0
[     0s]    INFO OpenTunerToolLocus: Run cfg_id: 125 time: 814.99887 cc: X cfg: 9: tileI = 512, 15: tileK = 64, 21: tileJ = 32, 69: sche = dynamic, 75: chu = 29, 93: OrBlock = 1
[     0s]    INFO OpenTunerToolLocus: Run cfg_id: 126 time: 424.04699 cc: X cfg: 9: tileI = 256, 15: tileK = 64, 21: tileJ = 32, 69: sche = static, 75: chu = 31, 93: OrBlock = 0
[     0s]    INFO OpenTunerToolLocus: Run cfg_id: 127 time: 761.15108 cc: X cfg: 9: tileI = 16, 15: tileK = 32, 21: tileJ = 256, 69: sche = static, 75: chu = 10, 93: OrBlock = 0
[     0s]    INFO OpenTunerToolLocus: Run cfg_id: 128 time: 426.81694 cc: X cfg: 9: tileI = 256, 15: tileK = 64, 21: tileJ = 32, 69: sche = dynamic, 75: chu = 3, 93: OrBlock = 0
[     0s]    INFO OpenTunerToolLocus: Run cfg_id: 129 time: 563.01308 cc: X cfg: 9: tileI = 256, 15: tileK = 32, 21: tileJ = 16, 69: sche = dynamic, 75: chu = 29, 93: OrBlock = 0
[     0s]    INFO OpenTunerToolLocus: Run cfg_id: 130 time: 565.99903 cc: X cfg: 9: tileI = 256, 15: tileK = 16, 21: tileJ = 32, 69: sche = dynamic, 75: chu = 29, 93: OrBlock = 0
[     0s]    INFO OpenTunerToolLocus: Run cfg_id: 25 time: 1429.26812 cc: X cfg: 9: tileI = 256, 15: tileK = 16, 21: tileJ = 128, 69: sche = static, 75: chu = 16, 93: OrBlock = 1
[     0s]    INFO OpenTunerToolLocus: Run cfg_id: 131 time: 451.545 cc: X cfg: 9: tileI = 512, 15: tileK = 64, 21: tileJ = 32, 69: sche = dynamic, 75: chu = 24, 93: OrBlock = 0
[     0s]    INFO OpenTunerToolLocus: Run cfg_id: 132 time: 834.90705 cc: X cfg: 9: tileI = 256, 15: tileK = 128, 21: tileJ = 32, 69: sche = dynamic, 75: chu = 31, 93: OrBlock = 1
[     0s]    INFO OpenTunerToolLocus: Run cfg_id: 26 time: 1417.4881 cc: X cfg: 9: tileI = 128, 15: tileK = 32, 21: tileJ = 4, 69: sche = dynamic, 75: chu = 12, 93: OrBlock = 0
[     0s]    INFO OpenTunerToolLocus: Run cfg_id: 133 time: 459.96904 cc: X cfg: 9: tileI = 64, 15: tileK = 64, 21: tileJ = 32, 69: sche = dynamic, 75: chu = 29, 93: OrBlock = 0
[     0s]    INFO OpenTunerToolLocus: Run cfg_id: 134 time: 744.11702 cc: X cfg: 9: tileI = 32, 15: tileK = 128, 21: tileJ = 512, 69: sche = dynamic, 75: chu = 3, 93: OrBlock = 1
[     0s]    INFO OpenTunerToolLocus: Run cfg_id: 135 time: 414.14094 cc: X cfg: 9: tileI = 256, 15: tileK = 64, 21: tileJ = 32, 69: sche = static, 75: chu = 30, 93: OrBlock = 0
[     0s]    INFO OpenTunerToolLocus: Run cfg_id: 136 time: 493.35003 cc: X cfg: 9: tileI = 512, 15: tileK = 128, 21: tileJ = 16, 69: sche = dynamic, 75: chu = 29, 93: OrBlock = 0
[     0s]    INFO OpenTunerToolLocus: Run cfg_id: 27 time: 1263.69405 cc: X cfg: 9: tileI = 64, 15: tileK = 256, 21: tileJ = 256, 69: sche = static, 75: chu = 28, 93: OrBlock = 1
[     0s]    INFO OpenTunerToolLocus: Run cfg_id: 137 time: 643.65101 cc: X cfg: 9: tileI = 512, 15: tileK = 64, 21: tileJ = 64, 69: sche = dynamic, 75: chu = 17, 93: OrBlock = 0
[     0s]    INFO OpenTunerToolLocus: Run cfg_id: 138 time: 544.75093 cc: X cfg: 9: tileI = 256, 15: tileK = 32, 21: tileJ = 32, 69: sche = dynamic, 75: chu = 29, 93: OrBlock = 0
[     0s]    INFO OpenTunerToolLocus: Run cfg_id: 139 time: 462.45098 cc: X cfg: 9: tileI = 64, 15: tileK = 64, 21: tileJ = 32, 69: sche = static, 75: chu = 30, 93: OrBlock = 0
[     0s]    INFO OpenTunerToolLocus: Run cfg_id: 28 time: 1632.73215 cc: X cfg: 9: tileI = 16, 15: tileK = 8, 21: tileJ = 8, 69: sche = static, 75: chu = 21, 93: OrBlock = 0
[     0s]    INFO OpenTunerToolLocus: Run cfg_id: 140 time: 818.29119 cc: X cfg: 9: tileI = 256, 15: tileK = 64, 21: tileJ = 32, 69: sche = static, 75: chu = 27, 93: OrBlock = 1
[     0s]    INFO OpenTunerToolLocus: Run cfg_id: 141 time: 415.58814 cc: X cfg: 9: tileI = 256, 15: tileK = 128, 21: tileJ = 32, 69: sche = static, 75: chu = 29, 93: OrBlock = 0
[     0s]    INFO OpenTunerToolLocus: Run cfg_id: 142 time: 592.97109 cc: X cfg: 9: tileI = 512, 15: tileK = 64, 21: tileJ = 16, 69: sche = dynamic, 75: chu = 23, 93: OrBlock = 0
[     0s]    INFO OpenTunerToolLocus: Run cfg_id: 143 time: 570.19496 cc: X cfg: 9: tileI = 128, 15: tileK = 64, 21: tileJ = 16, 69: sche = dynamic, 75: chu = 29, 93: OrBlock = 0
[     0s]    INFO OpenTunerToolLocus: Run cfg_id: 29 time: 800.75216 cc: X cfg: 9: tileI = 16, 15: tileK = 16, 21: tileJ = 64, 69: sche = static, 75: chu = 22, 93: OrBlock = 1
[     0s]    INFO OpenTunerToolLocus: Run cfg_id: 144 time: 712.51202 cc: X cfg: 9: tileI = 256, 15: tileK = 64, 21: tileJ = 128, 69: sche = dynamic, 75: chu = 27, 93: OrBlock = 0
[     0s]    INFO OpenTunerToolLocus: Run cfg_id: 145 time: 806.96988 cc: X cfg: 9: tileI = 512, 15: tileK = 128, 21: tileJ = 32, 69: sche = dynamic, 75: chu = 29, 93: OrBlock = 1
[     0s]    INFO OpenTunerToolLocus: Run cfg_id: 146 time: 640.16104 cc: X cfg: 9: tileI = 512, 15: tileK = 128, 21: tileJ = 64, 69: sche = dynamic, 75: chu = 30, 93: OrBlock = 0
[     0s]    INFO OpenTunerToolLocus: Run cfg_id: 30 time: 716.27903 cc: X cfg: 9: tileI = 512, 15: tileK = 16, 21: tileJ = 256, 69: sche = dynamic, 75: chu = 9, 93: OrBlock = 0
[     0s]    INFO OpenTunerToolLocus: Run cfg_id: 147 time: 409.22713 cc: X cfg: 9: tileI = 256, 15: tileK = 128, 21: tileJ = 32, 69: sche = dynamic, 75: chu = 31, 93: OrBlock = 0
[     0s]    INFO OpenTunerToolLocus: Run cfg_id: 148 time: 419.03806 cc: X cfg: 9: tileI = 512, 15: tileK = 256, 21: tileJ = 32, 69: sche = dynamic, 75: chu = 22, 93: OrBlock = 0
[     0s]    INFO OpenTunerToolLocus: Run cfg_id: 149 time: 847.44883 cc: X cfg: 9: tileI = 256, 15: tileK = 64, 21: tileJ = 32, 69: sche = dynamic, 75: chu = 20, 93: OrBlock = 1
[     0s]    INFO OpenTunerToolLocus: Run cfg_id: 150 time: 634.00984 cc: X cfg: 9: tileI = 256, 15: tileK = 128, 21: tileJ = 64, 69: sche = dynamic, 75: chu = 29, 93: OrBlock = 0
[     0s]    INFO OpenTunerToolLocus: Run cfg_id: 151 time: 638.75389 cc: X cfg: 9: tileI = 128, 15: tileK = 64, 21: tileJ = 64, 69: sche = dynamic, 75: chu = 29, 93: OrBlock = 0
[     0s]    INFO OpenTunerToolLocus: Run cfg_id: 31 time: 2027.57502 cc: X cfg: 9: tileI = 16, 15: tileK = 128, 21: tileJ = 8, 69: sche = static, 75: chu = 5, 93: OrBlock = 0
[     0s]    INFO OpenTunerToolLocus: Run cfg_id: 152 time: 845.18409 cc: X cfg: 9: tileI = 256, 15: tileK = 64, 21: tileJ = 32, 69: sche = static, 75: chu = 29, 93: OrBlock = 1
[     0s]    INFO OpenTunerToolLocus: Run cfg_id: 153 time: 1961.39407 cc: X cfg: 9: tileI = 256, 15: tileK = 2, 21: tileJ = 32, 69: sche = dynamic, 75: chu = 29, 93: OrBlock = 1
[     0s]    INFO OpenTunerToolLocus: Run cfg_id: 154 time: 1157.06396 cc: X cfg: 9: tileI = 512, 15: tileK = 512, 21: tileJ = 8, 69: sche = dynamic, 75: chu = 30, 93: OrBlock = 0
[     0s]    INFO OpenTunerToolLocus: Run cfg_id: 155 time: 1068.24398 cc: X cfg: 9: tileI = 256, 15: tileK = 64, 21: tileJ = 16, 69: sche = static, 75: chu = 29, 93: OrBlock = 1
[     0s]    INFO OpenTunerToolLocus: Run cfg_id: 32 time: 678.84207 cc: X cfg: 9: tileI = 8, 15: tileK = 16, 21: tileJ = 16, 69: sche = dynamic, 75: chu = 1, 93: OrBlock = 0
[     0s]    INFO OpenTunerToolLocus: Run cfg_id: 156 time: 716.56799 cc: X cfg: 9: tileI = 512, 15: tileK = 64, 21: tileJ = 128, 69: sche = dynamic, 75: chu = 1, 93: OrBlock = 0
[     0s]    INFO OpenTunerToolLocus: Run cfg_id: 157 time: 1315.09399 cc: X cfg: 9: tileI = 64, 15: tileK = 64, 21: tileJ = 512, 69: sche = dynamic, 75: chu = 29, 93: OrBlock = 1
[     0s]    INFO OpenTunerToolLocus: Run cfg_id: 33 time: 1680.04489 cc: X cfg: 9: tileI = 128, 15: tileK = 32, 21: tileJ = 8, 69: sche = static, 75: chu = 2, 93: OrBlock = 0
[     0s]    INFO OpenTunerToolLocus: Run cfg_id: 158 time: 620.80097 cc: X cfg: 9: tileI = 64, 15: tileK = 64, 21: tileJ = 16, 69: sche = dynamic, 75: chu = 28, 93: OrBlock = 0
[     0s]    INFO OpenTunerToolLocus: Run cfg_id: 159 time: 714.09106 cc: X cfg: 9: tileI = 256, 15: tileK = 64, 21: tileJ = 128, 69: sche = dynamic, 75: chu = 9, 93: OrBlock = 0
[     0s]    INFO OpenTunerToolLocus: Run cfg_id: 160 time: 698.38905 cc: X cfg: 9: tileI = 256, 15: tileK = 64, 21: tileJ = 512, 69: sche = dynamic, 75: chu = 29, 93: OrBlock = 0
[     0s]    INFO OpenTunerToolLocus: Run cfg_id: 161 time: 716.68601 cc: X cfg: 9: tileI = 128, 15: tileK = 64, 21: tileJ = 128, 69: sche = dynamic, 75: chu = 29, 93: OrBlock = 0
[     0s]    INFO OpenTunerToolLocus: Run cfg_id: 34 time: 1871.44899 cc: X cfg: 9: tileI = 16, 15: tileK = 16, 21: tileJ = 4, 69: sche = static, 75: chu = 7, 93: OrBlock = 1
[     0s]    INFO OpenTunerToolLocus: Run cfg_id: 162 time: 3129.68016 cc: X cfg: 9: tileI = 256, 15: tileK = 64, 21: tileJ = 8, 69: sche = dynamic, 75: chu = 29, 93: OrBlock = 1
[     0s]    INFO OpenTunerToolLocus: Run cfg_id: 163 time: 1840.37089 cc: X cfg: 9: tileI = 256, 15: tileK = 128, 21: tileJ = 4, 69: sche = dynamic, 75: chu = 29, 93: OrBlock = 0
[     0s]    INFO OpenTunerToolLocus: Run cfg_id: 164 time: 1163.39397 cc: X cfg: 9: tileI = 512, 15: tileK = 16, 21: tileJ = 8, 69: sche = dynamic, 75: chu = 32, 93: OrBlock = 0
[     0s]    INFO OpenTunerToolLocus: Run cfg_id: 35 time: 708.57501 cc: X cfg: 9: tileI = 128, 15: tileK = 512, 21: tileJ = 512, 69: sche = static, 75: chu = 3, 93: OrBlock = 0
[     0s]    INFO OpenTunerToolLocus: Run cfg_id: 165 time: 636.71184 cc: X cfg: 9: tileI = 256, 15: tileK = 64, 21: tileJ = 64, 69: sche = dynamic, 75: chu = 28, 93: OrBlock = 0
[     0s]    INFO OpenTunerToolLocus: Run cfg_id: 166 time: 656.60191 cc: X cfg: 9: tileI = 256, 15: tileK = 64, 21: tileJ = 64, 69: sche = dynamic, 75: chu = 31, 93: OrBlock = 0
[     0s]    INFO OpenTunerToolLocus: Run cfg_id: 36 time: 4509.83596 cc: X cfg: 9: tileI = 16, 15: tileK = 2, 21: tileJ = 2, 69: sche = static, 75: chu = 27, 93: OrBlock = 0
[     0s]    INFO OpenTunerToolLocus: Run cfg_id: 167 time: 702.42381 cc: X cfg: 9: tileI = 128, 15: tileK = 128, 21: tileJ = 256, 69: sche = dynamic, 75: chu = 8, 93: OrBlock = 1
[     0s]    INFO OpenTunerToolLocus: Run cfg_id: 168 time: 418.15591 cc: X cfg: 9: tileI = 256, 15: tileK = 64, 21: tileJ = 32, 69: sche = dynamic, 75: chu = 2, 93: OrBlock = 0
[     0s]    INFO OpenTunerToolLocus: Run cfg_id: 169 time: 439.80408 cc: X cfg: 9: tileI = 128, 15: tileK = 64, 21: tileJ = 32, 69: sche = static, 75: chu = 29, 93: OrBlock = 0
[     0s]    INFO OpenTunerToolLocus: Run cfg_id: 170 time: 1020.70999 cc: X cfg: 9: tileI = 64, 15: tileK = 128, 21: tileJ = 32, 69: sche = dynamic, 75: chu = 32, 93: OrBlock = 1
[     0s]    INFO OpenTunerToolLocus: Run cfg_id: 37 time: 1300.12989 cc: X cfg: 9: tileI = 4, 15: tileK = 8, 21: tileJ = 512, 69: sche = static, 75: chu = 24, 93: OrBlock = 0
[     0s]    INFO OpenTunerToolLocus: Run cfg_id: 171 time: 730.83305 cc: X cfg: 9: tileI = 256, 15: tileK = 64, 21: tileJ = 128, 69: sche = dynamic, 75: chu = 24, 93: OrBlock = 0
[     0s]    INFO OpenTunerToolLocus: Run cfg_id: 172 time: 2727.88 cc: X cfg: 9: tileI = 128, 15: tileK = 16, 21: tileJ = 2, 69: sche = dynamic, 75: chu = 5, 93: OrBlock = 0
[     0s]    INFO OpenTunerToolLocus: Run cfg_id: 173 time: 413.71799 cc: X cfg: 9: tileI = 256, 15: tileK = 64, 21: tileJ = 32, 69: sche = dynamic, 75: chu = 30, 93: OrBlock = 0
[     0s]    INFO OpenTunerToolLocus: Run cfg_id: 174 time: 714.97798 cc: X cfg: 9: tileI = 256, 15: tileK = 64, 21: tileJ = 128, 69: sche = dynamic, 75: chu = 12, 93: OrBlock = 0
[     0s]    INFO OpenTunerToolLocus: Run cfg_id: 175 time: 413.86104 cc: X cfg: 9: tileI = 256, 15: tileK = 64, 21: tileJ = 32, 69: sche = static, 75: chu = 10, 93: OrBlock = 0
[     0s]    INFO OpenTunerToolLocus: Run cfg_id: 176 time: 695.21403 cc: X cfg: 9: tileI = 512, 15: tileK = 512, 21: tileJ = 512, 69: sche = dynamic, 75: chu = 14, 93: OrBlock = 0
[     0s]    INFO OpenTunerToolLocus: Run cfg_id: 177 time: 1439.79406 cc: X cfg: 9: tileI = 256, 15: tileK = 256, 21: tileJ = 128, 69: sche = dynamic, 75: chu = 15, 93: OrBlock = 1
[     0s]    INFO OpenTunerToolLocus: Run cfg_id: 180 time: 795.92299 cc: X cfg: 9: tileI = 256, 15: tileK = 4, 21: tileJ = 32, 69: sche = dynamic, 75: chu = 12, 93: OrBlock = 0
[     0s]    INFO OpenTunerToolLocus: Run cfg_id: 181 time: 411.96084 cc: X cfg: 9: tileI = 256, 15: tileK = 128, 21: tileJ = 32, 69: sche = static, 75: chu = 32, 93: OrBlock = 0
[     0s]    INFO OpenTunerToolLocus: Run cfg_id: 182 time: 2674.52002 cc: X cfg: 9: tileI = 32, 15: tileK = 256, 21: tileJ = 2, 69: sche = static, 75: chu = 7, 93: OrBlock = 0
[     0s]    INFO OpenTunerToolLocus: Run cfg_id: 178 time: 713.90295 cc: X cfg: 9: tileI = 512, 15: tileK = 128, 21: tileJ = 128, 69: sche = dynamic, 75: chu = 16, 93: OrBlock = 0
[     0s]    INFO OpenTunerToolLocus: Run cfg_id: 183 time: 556.11801 cc: X cfg: 9: tileI = 256, 15: tileK = 64, 21: tileJ = 16, 69: sche = static, 75: chu = 31, 93: OrBlock = 0
[     0s]    INFO OpenTunerToolLocus: Run cfg_id: 184 time: 1763.92508 cc: X cfg: 9: tileI = 2, 15: tileK = 64, 21: tileJ = 256, 69: sche = static, 75: chu = 26, 93: OrBlock = 0
[     0s]    INFO OpenTunerToolLocus: Run cfg_id: 185 time: 540.07912 cc: X cfg: 9: tileI = 256, 15: tileK = 32, 21: tileJ = 32, 69: sche = dynamic, 75: chu = 32, 93: OrBlock = 0
[     0s]    INFO OpenTunerToolLocus: Run cfg_id: 179 time: 646.72399 cc: X cfg: 9: tileI = 512, 15: tileK = 128, 21: tileJ = 64, 69: sche = dynamic, 75: chu = 16, 93: OrBlock = 0
[     0s]    INFO OpenTunerToolLocus: Run cfg_id: 186 time: 717.75317 cc: X cfg: 9: tileI = 512, 15: tileK = 64, 21: tileJ = 128, 69: sche = dynamic, 75: chu = 2, 93: OrBlock = 0
[     0s]    INFO OpenTunerToolLocus: Run cfg_id: 187 time: 423.91896 cc: X cfg: 9: tileI = 128, 15: tileK = 64, 21: tileJ = 32, 69: sche = dynamic, 75: chu = 32, 93: OrBlock = 0
[     0s]    INFO OpenTunerToolLocus: Run cfg_id: 188 time: 1117.38682 cc: X cfg: 9: tileI = 256, 15: tileK = 16, 21: tileJ = 32, 69: sche = static, 75: chu = 29, 93: OrBlock = 1
[     0s]    INFO OpenTunerToolLocus: Run cfg_id: 189 time: 686.75017 cc: X cfg: 9: tileI = 64, 15: tileK = 512, 21: tileJ = 512, 69: sche = dynamic, 75: chu = 29, 93: OrBlock = 0
[     0s]    INFO OpenTunerToolLocus: Run cfg_id: 190 time: 671.93103 cc: X cfg: 9: tileI = 512, 15: tileK = 32, 21: tileJ = 16, 69: sche = dynamic, 75: chu = 24, 93: OrBlock = 0
[     0s]    INFO OpenTunerToolLocus: Run cfg_id: 191 time: 893.52703 cc: X cfg: 9: tileI = 8, 15: tileK = 256, 21: tileJ = 256, 69: sche = static, 75: chu = 28, 93: OrBlock = 1
[     0s]    INFO OpenTunerToolLocus: Run cfg_id: 192 time: 666.96811 cc: X cfg: 9: tileI = 64, 15: tileK = 64, 21: tileJ = 16, 69: sche = dynamic, 75: chu = 29, 93: OrBlock = 0
[     0s]    INFO OpenTunerToolLocus: Run cfg_id: 193 time: 2143.72706 cc: X cfg: 9: tileI = 16, 15: tileK = 64, 21: tileJ = 4, 69: sche = dynamic, 75: chu = 29, 93: OrBlock = 0
[     0s]    INFO OpenTunerToolLocus: Run cfg_id: 194 time: 457.13711 cc: X cfg: 9: tileI = 512, 15: tileK = 64, 21: tileJ = 32, 69: sche = dynamic, 75: chu = 21, 93: OrBlock = 0
[     0s]    INFO OpenTunerToolLocus: Run cfg_id: 195 time: 447.66021 cc: X cfg: 9: tileI = 512, 15: tileK = 64, 21: tileJ = 32, 69: sche = dynamic, 75: chu = 25, 93: OrBlock = 0
[     1s]    INFO OpenTunerToolLocus: Run cfg_id: 196 time: 3593.78791 cc: X cfg: 9: tileI = 64, 15: tileK = 8, 21: tileJ = 4, 69: sche = static, 75: chu = 29, 93: OrBlock = 1
[     1s]    INFO OpenTunerToolLocus: Run cfg_id: 197 time: 858.31404 cc: X cfg: 9: tileI = 128, 15: tileK = 64, 21: tileJ = 32, 69: sche = static, 75: chu = 29, 93: OrBlock = 1
[     1s]    INFO OpenTunerToolLocus: Run cfg_id: 198 time: 566.02097 cc: X cfg: 9: tileI = 256, 15: tileK = 16, 21: tileJ = 32, 69: sche = dynamic, 75: chu = 23, 93: OrBlock = 0
[     1s]    INFO OpenTunerToolLocus: Run cfg_id: 199 time: 518.58592 cc: X cfg: 9: tileI = 512, 15: tileK = 128, 21: tileJ = 16, 69: sche = dynamic, 75: chu = 28, 93: OrBlock = 0
[     1s]    INFO OpenTunerToolLocus: Run cfg_id: 200 time: 1037.77599 cc: X cfg: 9: tileI = 8, 15: tileK = 2, 21: tileJ = 64, 69: sche = dynamic, 75: chu = 23, 93: OrBlock = 0
[     1s]    INFO OpenTunerToolLocus: Run cfg_id: 201 time: 1038.86986 cc: X cfg: 9: tileI = 256, 15: tileK = 32, 21: tileJ = 32, 69: sche = dynamic, 75: chu = 27, 93: OrBlock = 1
[     1s]    INFO OpenTunerToolLocus: Run cfg_id: 202 time: 730.87406 cc: X cfg: 9: tileI = 64, 15: tileK = 64, 21: tileJ = 128, 69: sche = dynamic, 75: chu = 29, 93: OrBlock = 0
[     1s]    INFO OpenTunerToolLocus: Run cfg_id: 203 time: 424.96109 cc: X cfg: 9: tileI = 512, 15: tileK = 128, 21: tileJ = 32, 69: sche = dynamic, 75: chu = 24, 93: OrBlock = 0
[     1s]    INFO OpenTunerToolLocus: Run cfg_id: 204 time: 3209.39803 cc: X cfg: 9: tileI = 2, 15: tileK = 128, 21: tileJ = 64, 69: sche = dynamic, 75: chu = 11, 93: OrBlock = 0
[     1s]    INFO OpenTunerToolLocus: Run cfg_id: 205 time: 2646.08288 cc: X cfg: 9: tileI = 256, 15: tileK = 64, 21: tileJ = 2, 69: sche = static, 75: chu = 29, 93: OrBlock = 0
[     1s]    INFO OpenTunerToolLocus: Run cfg_id: 206 time: 1642.91191 cc: X cfg: 9: tileI = 512, 15: tileK = 128, 21: tileJ = 8, 69: sche = dynamic, 75: chu = 31, 93: OrBlock = 0
[     1s]    INFO OpenTunerToolLocus: Run cfg_id: 207 time: 793.07818 cc: X cfg: 9: tileI = 32, 15: tileK = 16, 21: tileJ = 16, 69: sche = static, 75: chu = 3, 93: OrBlock = 0
[     1s]    INFO OpenTunerToolLocus: Run cfg_id: 208 time: 839.58602 cc: X cfg: 9: tileI = 256, 15: tileK = 64, 21: tileJ = 32, 69: sche = dynamic, 75: chu = 31, 93: OrBlock = 1
[     1s]    INFO OpenTunerToolLocus: Run cfg_id: 209 time: 634.6581 cc: X cfg: 9: tileI = 512, 15: tileK = 16, 21: tileJ = 32, 69: sche = dynamic, 75: chu = 29, 93: OrBlock = 0
[     1s]    INFO OpenTunerToolLocus: Run cfg_id: 210 time: 642.45415 cc: X cfg: 9: tileI = 512, 15: tileK = 128, 21: tileJ = 64, 69: sche = dynamic, 75: chu = 19, 93: OrBlock = 0
[     1s]    INFO OpenTunerToolLocus: Run cfg_id: 211 time: 717.28992 cc: X cfg: 9: tileI = 64, 15: tileK = 32, 21: tileJ = 256, 69: sche = static, 75: chu = 19, 93: OrBlock = 0
[     1s]    INFO OpenTunerToolLocus: Run cfg_id: 212 time: 653.66888 cc: X cfg: 9: tileI = 256, 15: tileK = 32, 21: tileJ = 64, 69: sche = dynamic, 75: chu = 29, 93: OrBlock = 0
[     1s]    INFO OpenTunerToolLocus: Run cfg_id: 213 time: 1655.25413 cc: X cfg: 9: tileI = 512, 15: tileK = 128, 21: tileJ = 8, 69: sche = dynamic, 75: chu = 28, 93: OrBlock = 0
[     1s]    INFO OpenTunerToolLocus: Run cfg_id: 214 time: 711.72094 cc: X cfg: 9: tileI = 128, 15: tileK = 32, 21: tileJ = 128, 69: sche = dynamic, 75: chu = 12, 93: OrBlock = 0
[     1s]    INFO OpenTunerToolLocus: Run cfg_id: 215 time: 639.40096 cc: X cfg: 9: tileI = 512, 15: tileK = 128, 21: tileJ = 64, 69: sche = dynamic, 75: chu = 21, 93: OrBlock = 0
[     1s]    INFO OpenTunerToolLocus: Run cfg_id: 216 time: 1320.06216 cc: X cfg: 9: tileI = 4, 15: tileK = 2, 21: tileJ = 32, 69: sche = dynamic, 75: chu = 2, 93: OrBlock = 1
[     1s]    INFO OpenTunerToolLocus: Run cfg_id: 217 time: 565.90605 cc: X cfg: 9: tileI = 128, 15: tileK = 32, 21: tileJ = 32, 69: sche = dynamic, 75: chu = 23, 93: OrBlock = 0
[     1s]    INFO OpenTunerToolLocus: Run cfg_id: 218 time: 705.796 cc: X cfg: 9: tileI = 256, 15: tileK = 64, 21: tileJ = 256, 69: sche = dynamic, 75: chu = 29, 93: OrBlock = 0
[     1s]    INFO OpenTunerToolLocus: Run cfg_id: 219 time: 1643.20207 cc: X cfg: 9: tileI = 512, 15: tileK = 128, 21: tileJ = 8, 69: sche = dynamic, 75: chu = 24, 93: OrBlock = 0
[     1s]    INFO OpenTunerToolLocus: Run cfg_id: 220 time: 713.77993 cc: X cfg: 9: tileI = 64, 15: tileK = 64, 21: tileJ = 128, 69: sche = static, 75: chu = 13, 93: OrBlock = 0
[     1s]    INFO OpenTunerToolLocus: Run cfg_id: 221 time: 1451.05791 cc: X cfg: 9: tileI = 512, 15: tileK = 64, 21: tileJ = 128, 69: sche = dynamic, 75: chu = 29, 93: OrBlock = 1
[     1s]    INFO OpenTunerToolLocus: Run cfg_id: 222 time: 995.27693 cc: X cfg: 9: tileI = 512, 15: tileK = 2, 21: tileJ = 32, 69: sche = dynamic, 75: chu = 29, 93: OrBlock = 0
[     1s]    INFO OpenTunerToolLocus: Run cfg_id: 223 time: 647.37892 cc: X cfg: 9: tileI = 512, 15: tileK = 128, 21: tileJ = 64, 69: sche = dynamic, 75: chu = 22, 93: OrBlock = 0
[     1s]    INFO OpenTunerToolLocus: Run cfg_id: 224 time: 1130.48291 cc: X cfg: 9: tileI = 256, 15: tileK = 16, 21: tileJ = 8, 69: sche = dynamic, 75: chu = 6, 93: OrBlock = 0
[     1s]    INFO OpenTunerToolLocus: Run cfg_id: 225 time: 817.70706 cc: X cfg: 9: tileI = 256, 15: tileK = 64, 21: tileJ = 32, 69: sche = static, 75: chu = 32, 93: OrBlock = 1
[     1s]    INFO OpenTunerToolLocus: Run cfg_id: 226 time: 428.66397 cc: X cfg: 9: tileI = 512, 15: tileK = 256, 21: tileJ = 32, 69: sche = dynamic, 75: chu = 23, 93: OrBlock = 0
[     1s]    INFO OpenTunerToolLocus: Run cfg_id: 229 time: 1032.36008 cc: X cfg: 9: tileI = 4, 15: tileK = 4, 21: tileJ = 16, 69: sche = static, 75: chu = 16, 93: OrBlock = 1
[     1s]    INFO OpenTunerToolLocus: Run cfg_id: 230 time: 812.46901 cc: X cfg: 9: tileI = 512, 15: tileK = 64, 21: tileJ = 32, 69: sche = static, 75: chu = 29, 93: OrBlock = 1
[     1s]    INFO OpenTunerToolLocus: Run cfg_id: 227 time: 415.7002 cc: X cfg: 9: tileI = 512, 15: tileK = 128, 21: tileJ = 32, 69: sche = dynamic, 75: chu = 22, 93: OrBlock = 0
[     1s]    INFO OpenTunerToolLocus: Run cfg_id: 231 time: 640.77711 cc: X cfg: 9: tileI = 512, 15: tileK = 16, 21: tileJ = 32, 69: sche = static, 75: chu = 29, 93: OrBlock = 0
[     1s]    INFO OpenTunerToolLocus: Run cfg_id: 232 time: 1348.51098 cc: X cfg: 9: tileI = 128, 15: tileK = 16, 21: tileJ = 8, 69: sche = dynamic, 75: chu = 19, 93: OrBlock = 0
[     1s]    INFO OpenTunerToolLocus: Run cfg_id: 233 time: 840.4901 cc: X cfg: 9: tileI = 256, 15: tileK = 128, 21: tileJ = 32, 69: sche = dynamic, 75: chu = 29, 93: OrBlock = 1
[     1s]    INFO OpenTunerToolLocus: Run cfg_id: 228 time: 637.06398 cc: X cfg: 9: tileI = 512, 15: tileK = 256, 21: tileJ = 64, 69: sche = dynamic, 75: chu = 22, 93: OrBlock = 0
[     1s]    INFO OpenTunerToolLocus: Run cfg_id: 234 time: 415.95888 cc: X cfg: 9: tileI = 256, 15: tileK = 64, 21: tileJ = 32, 69: sche = dynamic, 75: chu = 19, 93: OrBlock = 0
[     1s]    INFO OpenTunerToolLocus: Run cfg_id: 235 time: 1394.29688 cc: X cfg: 9: tileI = 256, 15: tileK = 16, 21: tileJ = 512, 69: sche = static, 75: chu = 16, 93: OrBlock = 1
[     1s]    INFO OpenTunerToolLocus: Run cfg_id: 236 time: 1266.30902 cc: X cfg: 9: tileI = 512, 15: tileK = 64, 21: tileJ = 64, 69: sche = dynamic, 75: chu = 29, 93: OrBlock = 1
[     1s]    INFO OpenTunerToolLocus: Run cfg_id: 237 time: 404.984 cc: X cfg: 9: tileI = 256, 15: tileK = 64, 21: tileJ = 32, 69: sche = dynamic, 75: chu = 17, 93: OrBlock = 0
[     1s]    INFO OpenTunerToolLocus: Run cfg_id: 238 time: 3130.52917 cc: X cfg: 9: tileI = 256, 15: tileK = 64, 21: tileJ = 8, 69: sche = dynamic, 75: chu = 17, 93: OrBlock = 1
[     1s]    INFO OpenTunerToolLocus: Run cfg_id: 239 time: 405.21312 cc: X cfg: 9: tileI = 256, 15: tileK = 64, 21: tileJ = 32, 69: sche = dynamic, 75: chu = 12, 93: OrBlock = 0
[     1s]    INFO OpenTunerToolLocus: Run cfg_id: 240 time: 561.5468 cc: X cfg: 9: tileI = 32, 15: tileK = 64, 21: tileJ = 32, 69: sche = dynamic, 75: chu = 17, 93: OrBlock = 0
[     1s]    INFO OpenTunerToolLocus: Run cfg_id: 241 time: 1861.04703 cc: X cfg: 9: tileI = 4, 15: tileK = 64, 21: tileJ = 32, 69: sche = dynamic, 75: chu = 17, 93: OrBlock = 0
[     1s]    INFO OpenTunerToolLocus: Run cfg_id: 242 time: 464.51306 cc: X cfg: 9: tileI = 64, 15: tileK = 64, 21: tileJ = 32, 69: sche = static, 75: chu = 17, 93: OrBlock = 0
[     1s]    INFO OpenTunerToolLocus: Run cfg_id: 243 time: 780.72691 cc: X cfg: 9: tileI = 256, 15: tileK = 4, 21: tileJ = 32, 69: sche = dynamic, 75: chu = 5, 93: OrBlock = 0
[     1s]    INFO OpenTunerToolLocus: Run cfg_id: 244 time: 433.07304 cc: X cfg: 9: tileI = 128, 15: tileK = 64, 21: tileJ = 32, 69: sche = dynamic, 75: chu = 17, 93: OrBlock = 0
[     1s]    INFO OpenTunerToolLocus: Run cfg_id: 245 time: 878.30114 cc: X cfg: 9: tileI = 16, 15: tileK = 64, 21: tileJ = 32, 69: sche = dynamic, 75: chu = 17, 93: OrBlock = 0
[     1s]    INFO OpenTunerToolLocus: Run cfg_id: 246 time: 414.53886 cc: X cfg: 9: tileI = 256, 15: tileK = 64, 21: tileJ = 32, 69: sche = static, 75: chu = 17, 93: OrBlock = 0
[     1s]    INFO OpenTunerToolLocus: Run cfg_id: 247 time: 634.02891 cc: X cfg: 9: tileI = 256, 15: tileK = 8, 21: tileJ = 32, 69: sche = dynamic, 75: chu = 17, 93: OrBlock = 0
[     1s]    INFO OpenTunerToolLocus: Run cfg_id: 248 time: 639.08315 cc: X cfg: 9: tileI = 256, 15: tileK = 64, 21: tileJ = 64, 69: sche = static, 75: chu = 17, 93: OrBlock = 0
[     1s]    INFO OpenTunerToolLocus: Run cfg_id: 249 time: 825.43302 cc: X cfg: 9: tileI = 256, 15: tileK = 64, 21: tileJ = 32, 69: sche = dynamic, 75: chu = 17, 93: OrBlock = 1
[     1s]    INFO OpenTunerToolLocus: Run cfg_id: 250 time: 436.33294 cc: X cfg: 9: tileI = 256, 15: tileK = 64, 21: tileJ = 32, 69: sche = dynamic, 75: chu = 5, 93: OrBlock = 0
[     1s]    INFO OpenTunerToolLocus: Run cfg_id: 251 time: 414.51311 cc: X cfg: 9: tileI = 256, 15: tileK = 64, 21: tileJ = 32, 69: sche = dynamic, 75: chu = 25, 93: OrBlock = 0
[     1s]    INFO OpenTunerToolLocus: Run cfg_id: 252 time: 2612.42604 cc: X cfg: 9: tileI = 256, 15: tileK = 64, 21: tileJ = 2, 69: sche = dynamic, 75: chu = 17, 93: OrBlock = 0
[     1s]    INFO OpenTunerToolLocus: Run cfg_id: 253 time: 556.26202 cc: X cfg: 9: tileI = 256, 15: tileK = 64, 21: tileJ = 16, 69: sche = dynamic, 75: chu = 17, 93: OrBlock = 0
[     1s]    INFO OpenTunerToolLocus: Run cfg_id: 254 time: 698.99201 cc: X cfg: 9: tileI = 256, 15: tileK = 64, 21: tileJ = 512, 69: sche = dynamic, 75: chu = 17, 93: OrBlock = 0
[     1s]    INFO OpenTunerToolLocus: Run cfg_id: 255 time: 714.03503 cc: X cfg: 9: tileI = 256, 15: tileK = 64, 21: tileJ = 128, 69: sche = dynamic, 75: chu = 17, 93: OrBlock = 0
[     1s]    INFO OpenTunerToolLocus: Run cfg_id: 256 time: 1169.96408 cc: X cfg: 9: tileI = 4, 15: tileK = 64, 21: tileJ = 128, 69: sche = dynamic, 75: chu = 17, 93: OrBlock = 1
[     1s]    INFO OpenTunerToolLocus: Run cfg_id: 257 time: 492.71202 cc: X cfg: 9: tileI = 64, 15: tileK = 64, 21: tileJ = 32, 69: sche = dynamic, 75: chu = 17, 93: OrBlock = 0
[     1s]    INFO OpenTunerToolLocus: Run cfg_id: 258 time: 499.17698 cc: X cfg: 9: tileI = 512, 15: tileK = 64, 21: tileJ = 32, 69: sche = dynamic, 75: chu = 17, 93: OrBlock = 0
[     1s]    INFO OpenTunerToolLocus: Run cfg_id: 259 time: 413.51295 cc: X cfg: 9: tileI = 256, 15: tileK = 256, 21: tileJ = 32, 69: sche = dynamic, 75: chu = 32, 93: OrBlock = 0
[     1s]    INFO OpenTunerToolLocus: Run cfg_id: 260 time: 716.17007 cc: X cfg: 9: tileI = 256, 15: tileK = 64, 21: tileJ = 256, 69: sche = dynamic, 75: chu = 17, 93: OrBlock = 0
[     1s]    INFO OpenTunerToolLocus: Run cfg_id: 261 time: 1666.97192 cc: X cfg: 9: tileI = 64, 15: tileK = 64, 21: tileJ = 4, 69: sche = dynamic, 75: chu = 17, 93: OrBlock = 0
[     1s]    INFO OpenTunerToolLocus: Run cfg_id: 262 time: 699.14389 cc: X cfg: 9: tileI = 128, 15: tileK = 64, 21: tileJ = 512, 69: sche = dynamic, 75: chu = 15, 93: OrBlock = 0
[     1s]    INFO OpenTunerToolLocus: Run cfg_id: 263 time: 1315.25207 cc: X cfg: 9: tileI = 8, 15: tileK = 64, 21: tileJ = 32, 69: sche = dynamic, 75: chu = 17, 93: OrBlock = 0
[     1s]    INFO OpenTunerToolLocus: Run cfg_id: 264 time: 1575.97613 cc: X cfg: 9: tileI = 256, 15: tileK = 64, 21: tileJ = 8, 69: sche = dynamic, 75: chu = 17, 93: OrBlock = 0
[     1s]    INFO OpenTunerToolLocus: Run cfg_id: 265 time: 1149.95408 cc: X cfg: 9: tileI = 512, 15: tileK = 256, 21: tileJ = 8, 69: sche = dynamic, 75: chu = 22, 93: OrBlock = 0
[     1s]    INFO OpenTunerToolLocus: Run cfg_id: 266 time: 1527.51803 cc: X cfg: 9: tileI = 64, 15: tileK = 32, 21: tileJ = 4, 69: sche = dynamic, 75: chu = 21, 93: OrBlock = 0
[     1s]    INFO OpenTunerToolLocus: Run cfg_id: 267 time: 1083.09221 cc: X cfg: 9: tileI = 256, 15: tileK = 64, 21: tileJ = 16, 69: sche = dynamic, 75: chu = 16, 93: OrBlock = 1
[     1s]    INFO OpenTunerToolLocus: Run cfg_id: 268 time: 411.24105 cc: X cfg: 9: tileI = 256, 15: tileK = 64, 21: tileJ = 32, 69: sche = dynamic, 75: chu = 10, 93: OrBlock = 0
[     1s]    INFO OpenTunerToolLocus: Run cfg_id: 269 time: 1335.05201 cc: X cfg: 9: tileI = 4, 15: tileK = 256, 21: tileJ = 256, 69: sche = static, 75: chu = 28, 93: OrBlock = 1
[     1s]    INFO OpenTunerToolLocus: Run cfg_id: 270 time: 405.63917 cc: X cfg: 9: tileI = 256, 15: tileK = 64, 21: tileJ = 32, 69: sche = dynamic, 75: chu = 13, 93: OrBlock = 0
[     1s]    INFO OpenTunerToolLocus: Run cfg_id: 271 time: 1339.34093 cc: X cfg: 9: tileI = 64, 15: tileK = 16, 21: tileJ = 8, 69: sche = static, 75: chu = 1, 93: OrBlock = 0
[     1s]    INFO OpenTunerToolLocus: Run cfg_id: 272 time: 646.21282 cc: X cfg: 9: tileI = 512, 15: tileK = 64, 21: tileJ = 64, 69: sche = dynamic, 75: chu = 11, 93: OrBlock = 0
[     1s]    INFO OpenTunerToolLocus: Run cfg_id: 273 time: 414.74199 cc: X cfg: 9: tileI = 256, 15: tileK = 64, 21: tileJ = 32, 69: sche = dynamic, 75: chu = 27, 93: OrBlock = 0
[     1s]    INFO OpenTunerToolLocus: Run cfg_id: 274 time: 1056.96201 cc: X cfg: 9: tileI = 32, 15: tileK = 16, 21: tileJ = 64, 69: sche = static, 75: chu = 22, 93: OrBlock = 1
[     1s]    INFO OpenTunerToolLocus: Run cfg_id: 275 time: 509.91392 cc: X cfg: 9: tileI = 256, 15: tileK = 64, 21: tileJ = 32, 69: sche = dynamic, 75: chu = 5, 93: OrBlock = 1
[     1s]    INFO OpenTunerToolLocus: Run cfg_id: 276 time: 720.1829 cc: X cfg: 9: tileI = 512, 15: tileK = 16, 21: tileJ = 256, 69: sche = dynamic, 75: chu = 14, 93: OrBlock = 0
[     1s]    INFO OpenTunerToolLocus: Run cfg_id: 277 time: 413.99693 cc: X cfg: 9: tileI = 256, 15: tileK = 64, 21: tileJ = 32, 69: sche = dynamic, 75: chu = 21, 93: OrBlock = 0
[     1s]    INFO OpenTunerToolLocus: Run cfg_id: 278 time: 730.13377 cc: X cfg: 9: tileI = 256, 15: tileK = 8, 21: tileJ = 128, 69: sche = dynamic, 75: chu = 17, 93: OrBlock = 0
[     1s]    INFO OpenTunerToolLocus: Run cfg_id: 279 time: 2063.26699 cc: X cfg: 9: tileI = 4, 15: tileK = 4, 21: tileJ = 8, 69: sche = static, 75: chu = 5, 93: OrBlock = 1
[     1s]    INFO OpenTunerToolLocus: Run cfg_id: 280 time: 675.09007 cc: X cfg: 9: tileI = 64, 15: tileK = 64, 21: tileJ = 64, 69: sche = dynamic, 75: chu = 17, 93: OrBlock = 0
[     1s]    INFO OpenTunerToolLocus: Run cfg_id: 281 time: 795.06588 cc: X cfg: 9: tileI = 32, 15: tileK = 16, 21: tileJ = 16, 69: sche = dynamic, 75: chu = 1, 93: OrBlock = 0
[     1s]    INFO OpenTunerToolLocus: Run cfg_id: 282 time: 640.14316 cc: X cfg: 9: tileI = 256, 15: tileK = 64, 21: tileJ = 64, 69: sche = dynamic, 75: chu = 17, 93: OrBlock = 0
[     1s]    INFO OpenTunerToolLocus: Run cfg_id: 283 time: 861.83 cc: X cfg: 9: tileI = 128, 15: tileK = 64, 21: tileJ = 32, 69: sche = static, 75: chu = 19, 93: OrBlock = 1
[     1s]    INFO OpenTunerToolLocus: Run cfg_id: 284 time: 682.78313 cc: X cfg: 9: tileI = 8, 15: tileK = 8, 21: tileJ = 32, 69: sche = dynamic, 75: chu = 17, 93: OrBlock = 0
[     1s]    INFO OpenTunerToolLocus: Run cfg_id: 285 time: 2667.96994 cc: X cfg: 9: tileI = 128, 15: tileK = 32, 21: tileJ = 2, 69: sche = static, 75: chu = 2, 93: OrBlock = 0
[     1s]    INFO OpenTunerToolLocus: Run cfg_id: 286 time: 636.62505 cc: X cfg: 9: tileI = 256, 15: tileK = 64, 21: tileJ = 64, 69: sche = dynamic, 75: chu = 15, 93: OrBlock = 0
[     1s]    INFO OpenTunerToolLocus: Run cfg_id: 287 time: 746.28615 cc: X cfg: 9: tileI = 16, 15: tileK = 16, 21: tileJ = 128, 69: sche = dynamic, 75: chu = 7, 93: OrBlock = 1
[     1s]    INFO OpenTunerToolLocus: Run cfg_id: 288 time: 560.62198 cc: X cfg: 9: tileI = 256, 15: tileK = 64, 21: tileJ = 16, 69: sche = static, 75: chu = 17, 93: OrBlock = 0
[     1s]    INFO OpenTunerToolLocus: Run cfg_id: 289 time: 1466.151 cc: X cfg: 9: tileI = 256, 15: tileK = 64, 21: tileJ = 128, 69: sche = dynamic, 75: chu = 17, 93: OrBlock = 1
[     1s]    INFO OpenTunerToolLocus: Run cfg_id: 290 time: 425.13895 cc: X cfg: 9: tileI = 256, 15: tileK = 256, 21: tileJ = 32, 69: sche = dynamic, 75: chu = 17, 93: OrBlock = 0
[     1s]    INFO OpenTunerToolLocus: Run cfg_id: 291 time: 692.88397 cc: X cfg: 9: tileI = 128, 15: tileK = 256, 21: tileJ = 512, 69: sche = static, 75: chu = 32, 93: OrBlock = 0
[     1s]    INFO OpenTunerToolLocus: Run cfg_id: 292 time: 1113.31105 cc: X cfg: 9: tileI = 128, 15: tileK = 32, 21: tileJ = 16, 69: sche = dynamic, 75: chu = 15, 93: OrBlock = 1
[     1s]    INFO OpenTunerToolLocus: Run cfg_id: 293 time: 837.73279 cc: X cfg: 9: tileI = 256, 15: tileK = 64, 21: tileJ = 32, 69: sche = static, 75: chu = 17, 93: OrBlock = 1
[     1s]    INFO OpenTunerToolLocus: Run cfg_id: 294 time: 818.98785 cc: X cfg: 9: tileI = 256, 15: tileK = 64, 21: tileJ = 32, 69: sche = dynamic, 75: chu = 12, 93: OrBlock = 1
[     1s]    INFO OpenTunerToolLocus: Run cfg_id: 295 time: 4862.44702 cc: X cfg: 9: tileI = 32, 15: tileK = 2, 21: tileJ = 2, 69: sche = static, 75: chu = 27, 93: OrBlock = 0
[     1s]    INFO OpenTunerToolLocus: Run cfg_id: 296 time: 538.29694 cc: X cfg: 9: tileI = 256, 15: tileK = 32, 21: tileJ = 32, 69: sche = dynamic, 75: chu = 12, 93: OrBlock = 0
[     1s]    INFO OpenTunerToolLocus: Run cfg_id: 297 time: 537.14013 cc: X cfg: 9: tileI = 256, 15: tileK = 32, 21: tileJ = 32, 69: sche = static, 75: chu = 17, 93: OrBlock = 0
[     1s]    INFO OpenTunerToolLocus: Run cfg_id: 298 time: 2862.23912 cc: X cfg: 9: tileI = 64, 15: tileK = 8, 21: tileJ = 2, 69: sche = static, 75: chu = 1, 93: OrBlock = 0
[     1s]    INFO OpenTunerToolLocus: Run cfg_id: 299 time: 1058.34699 cc: X cfg: 9: tileI = 256, 15: tileK = 64, 21: tileJ = 16, 69: sche = dynamic, 75: chu = 17, 93: OrBlock = 1
[     1s]    INFO OpenTunerToolLocus: Run cfg_id: 300 time: 819.79489 cc: X cfg: 9: tileI = 256, 15: tileK = 64, 21: tileJ = 32, 69: sche = dynamic, 75: chu = 13, 93: OrBlock = 1
[     1s]    INFO OpenTunerToolLocus: Run cfg_id: 301 time: 2809.38005 cc: X cfg: 9: tileI = 128, 15: tileK = 16, 21: tileJ = 2, 69: sche = static, 75: chu = 5, 93: OrBlock = 0
[     1s]    INFO OpenTunerToolLocus: Run cfg_id: 302 time: 423.19894 cc: X cfg: 9: tileI = 256, 15: tileK = 64, 21: tileJ = 32, 69: sche = static, 75: chu = 18, 93: OrBlock = 0
[     1s]    INFO OpenTunerToolLocus: Run cfg_id: 303 time: 695.89996 cc: X cfg: 9: tileI = 512, 15: tileK = 512, 21: tileJ = 512, 69: sche = static, 75: chu = 10, 93: OrBlock = 0
[     1s]    INFO OpenTunerToolLocus: Run cfg_id: 304 time: 1265.92398 cc: X cfg: 9: tileI = 256, 15: tileK = 64, 21: tileJ = 64, 69: sche = dynamic, 75: chu = 17, 93: OrBlock = 1
[     1s]    INFO OpenTunerToolLocus: Run cfg_id: 305 time: 405.74217 cc: X cfg: 9: tileI = 256, 15: tileK = 64, 21: tileJ = 32, 69: sche = dynamic, 75: chu = 22, 93: OrBlock = 0
[     1s]    INFO OpenTunerToolLocus: Run cfg_id: 306 time: 427.63591 cc: X cfg: 9: tileI = 256, 15: tileK = 128, 21: tileJ = 32, 69: sche = dynamic, 75: chu = 17, 93: OrBlock = 0
[     1s]    INFO OpenTunerToolLocus: Run cfg_id: 307 time: 5554.06594 cc: X cfg: 9: tileI = 256, 15: tileK = 16, 21: tileJ = 2, 69: sche = static, 75: chu = 20, 93: OrBlock = 1
[     1s]    INFO OpenTunerToolLocus: Run cfg_id: 308 time: 414.35409 cc: X cfg: 9: tileI = 256, 15: tileK = 64, 21: tileJ = 32, 69: sche = dynamic, 75: chu = 15, 93: OrBlock = 0
[     1s]    INFO OpenTunerToolLocus: Run cfg_id: 309 time: 463.28402 cc: X cfg: 9: tileI = 256, 15: tileK = 64, 21: tileJ = 32, 69: sche = dynamic, 75: chu = 18, 93: OrBlock = 0
[     1s]    INFO OpenTunerToolLocus: Run cfg_id: 310 time: 1641.24894 cc: X cfg: 9: tileI = 256, 15: tileK = 128, 21: tileJ = 8, 69: sche = dynamic, 75: chu = 14, 93: OrBlock = 0
[     1s]    INFO OpenTunerToolLocus: Run cfg_id: 311 time: 1963.44399 cc: X cfg: 9: tileI = 2, 15: tileK = 8, 21: tileJ = 32, 69: sche = static, 75: chu = 26, 93: OrBlock = 1
[     1s]    INFO OpenTunerToolLocus: Run cfg_id: 312 time: 406.60715 cc: X cfg: 9: tileI = 256, 15: tileK = 64, 21: tileJ = 32, 69: sche = static, 75: chu = 20, 93: OrBlock = 0
[     1s]    INFO OpenTunerToolLocus: Run cfg_id: 313 time: 838.44113 cc: X cfg: 9: tileI = 256, 15: tileK = 64, 21: tileJ = 32, 69: sche = static, 75: chu = 19, 93: OrBlock = 1
[     1s]    INFO OpenTunerToolLocus: Run cfg_id: 314 time: 665.70902 cc: X cfg: 9: tileI = 512, 15: tileK = 512, 21: tileJ = 64, 69: sche = dynamic, 75: chu = 29, 93: OrBlock = 0
[     1s]    INFO OpenTunerToolLocus: Run cfg_id: 315 time: 838.78899 cc: X cfg: 9: tileI = 256, 15: tileK = 64, 21: tileJ = 32, 69: sche = dynamic, 75: chu = 16, 93: OrBlock = 1
[     1s]    INFO OpenTunerToolLocus: Run cfg_id: 316 time: 460.0842 cc: X cfg: 9: tileI = 256, 15: tileK = 512, 21: tileJ = 32, 69: sche = dynamic, 75: chu = 17, 93: OrBlock = 0
[     1s]    INFO OpenTunerToolLocus: Run cfg_id: 317 time: 827.76189 cc: X cfg: 9: tileI = 8, 15: tileK = 256, 21: tileJ = 256, 69: sche = static, 75: chu = 32, 93: OrBlock = 1
[     1s]    INFO OpenTunerToolLocus: Run cfg_id: 318 time: 3566.85805 cc: X cfg: 9: tileI = 64, 15: tileK = 256, 21: tileJ = 4, 69: sche = static, 75: chu = 32, 93: OrBlock = 1
[     1s]    INFO OpenTunerToolLocus: Run cfg_id: 319 time: 1113.07597 cc: X cfg: 9: tileI = 8, 15: tileK = 64, 21: tileJ = 32, 69: sche = dynamic, 75: chu = 31, 93: OrBlock = 0
[     1s]    INFO OpenTunerToolLocus: Run cfg_id: 320 time: 958.77099 cc: X cfg: 9: tileI = 8, 15: tileK = 2, 21: tileJ = 64, 69: sche = static, 75: chu = 23, 93: OrBlock = 0
[     1s]    INFO OpenTunerToolLocus: Run cfg_id: 321 time: 425.49205 cc: X cfg: 9: tileI = 512, 15: tileK = 64, 21: tileJ = 32, 69: sche = static, 75: chu = 17, 93: OrBlock = 0
[     1s]    INFO OpenTunerToolLocus: Run cfg_id: 322 time: 1135.40292 cc: X cfg: 9: tileI = 16, 15: tileK = 64, 21: tileJ = 16, 69: sche = dynamic, 75: chu = 16, 93: OrBlock = 0
[     1s]    INFO OpenTunerToolLocus: Run cfg_id: 323 time: 572.73102 cc: X cfg: 9: tileI = 128, 15: tileK = 32, 21: tileJ = 32, 69: sche = dynamic, 75: chu = 17, 93: OrBlock = 0
[     1s]    INFO OpenTunerToolLocus: Run cfg_id: 324 time: 5792.18197 cc: X cfg: 9: tileI = 2, 15: tileK = 128, 21: tileJ = 8, 69: sche = dynamic, 75: chu = 11, 93: OrBlock = 0
[     1s]    INFO OpenTunerToolLocus: Run cfg_id: 325 time: 2663.82098 cc: X cfg: 9: tileI = 32, 15: tileK = 256, 21: tileJ = 2, 69: sche = static, 75: chu = 3, 93: OrBlock = 0
[     1s]    INFO OpenTunerToolLocus: Run cfg_id: 326 time: 639.11796 cc: X cfg: 9: tileI = 256, 15: tileK = 64, 21: tileJ = 64, 69: sche = static, 75: chu = 13, 93: OrBlock = 0
[     1s]    INFO OpenTunerToolLocus: Run cfg_id: 327 time: 699.70107 cc: X cfg: 9: tileI = 256, 15: tileK = 64, 21: tileJ = 512, 69: sche = static, 75: chu = 2, 93: OrBlock = 0
[     1s]    INFO OpenTunerToolLocus: Run cfg_id: 328 time: 674.08514 cc: X cfg: 9: tileI = 512, 15: tileK = 512, 21: tileJ = 64, 69: sche = static, 75: chu = 2, 93: OrBlock = 0
[     1s]    INFO OpenTunerToolLocus: Run cfg_id: 329 time: 820.10889 cc: X cfg: 9: tileI = 256, 15: tileK = 64, 21: tileJ = 32, 69: sche = dynamic, 75: chu = 14, 93: OrBlock = 1
[     1s]    INFO OpenTunerToolLocus: Run cfg_id: 330 time: 1670.35985 cc: X cfg: 9: tileI = 256, 15: tileK = 64, 21: tileJ = 4, 69: sche = dynamic, 75: chu = 17, 93: OrBlock = 0
[     1s]    INFO OpenTunerToolLocus: Run cfg_id: 331 time: 2656.04901 cc: X cfg: 9: tileI = 128, 15: tileK = 32, 21: tileJ = 2, 69: sche = static, 75: chu = 6, 93: OrBlock = 0
[     1s]    INFO OpenTunerToolLocus: Run cfg_id: 332 time: 1577.03495 cc: X cfg: 9: tileI = 256, 15: tileK = 64, 21: tileJ = 8, 69: sche = dynamic, 75: chu = 18, 93: OrBlock = 0
[     1s]    INFO OpenTunerToolLocus: Run cfg_id: 333 time: 2619.11416 cc: X cfg: 9: tileI = 8, 15: tileK = 64, 21: tileJ = 2, 69: sche = dynamic, 75: chu = 1, 93: OrBlock = 1
[     1s]    INFO OpenTunerToolLocus: Run cfg_id: 334 time: 632.47418 cc: X cfg: 9: tileI = 512, 15: tileK = 32, 21: tileJ = 32, 69: sche = dynamic, 75: chu = 17, 93: OrBlock = 0
[     1s]    INFO OpenTunerToolLocus: Run cfg_id: 335 time: 2419.62099 cc: X cfg: 9: tileI = 4, 15: tileK = 2, 21: tileJ = 8, 69: sche = dynamic, 75: chu = 2, 93: OrBlock = 1
[     1s]    INFO OpenTunerToolLocus: Run cfg_id: 336 time: 865.54289 cc: X cfg: 9: tileI = 256, 15: tileK = 64, 21: tileJ = 32, 69: sche = static, 75: chu = 11, 93: OrBlock = 1
[     1s]    INFO OpenTunerToolLocus: Run cfg_id: 337 time: 639.26291 cc: X cfg: 9: tileI = 128, 15: tileK = 128, 21: tileJ = 64, 69: sche = static, 75: chu = 17, 93: OrBlock = 0
[     1s]    INFO OpenTunerToolLocus: Run cfg_id: 338 time: 755.31697 cc: X cfg: 9: tileI = 64, 15: tileK = 8, 21: tileJ = 128, 69: sche = static, 75: chu = 18, 93: OrBlock = 0
[     1s]    INFO OpenTunerToolLocus: Run cfg_id: 339 time: 415.48705 cc: X cfg: 9: tileI = 256, 15: tileK = 128, 21: tileJ = 32, 69: sche = dynamic, 75: chu = 19, 93: OrBlock = 0
[     1s]    INFO OpenTunerToolLocus: Run cfg_id: 340 time: 694.50283 cc: X cfg: 9: tileI = 256, 15: tileK = 512, 21: tileJ = 64, 69: sche = dynamic, 75: chu = 22, 93: OrBlock = 0
[     1s]    INFO OpenTunerToolLocus: Run cfg_id: 341 time: 1092.21697 cc: X cfg: 9: tileI = 256, 15: tileK = 32, 21: tileJ = 32, 69: sche = static, 75: chu = 17, 93: OrBlock = 1
[     1s]    INFO OpenTunerToolLocus: Run cfg_id: 342 time: 555.25589 cc: X cfg: 9: tileI = 256, 15: tileK = 64, 21: tileJ = 16, 69: sche = dynamic, 75: chu = 21, 93: OrBlock = 0
[     1s]    INFO OpenTunerToolLocus: Run cfg_id: 343 time: 689.12816 cc: X cfg: 9: tileI = 16, 15: tileK = 8, 21: tileJ = 16, 69: sche = static, 75: chu = 16, 93: OrBlock = 1
[     1s]    INFO OpenTunerToolLocus: Run cfg_id: 344 time: 835.78014 cc: X cfg: 9: tileI = 256, 15: tileK = 128, 21: tileJ = 32, 69: sche = dynamic, 75: chu = 18, 93: OrBlock = 1
[     1s]    INFO OpenTunerToolLocus: Run cfg_id: 345 time: 1581.1429 cc: X cfg: 9: tileI = 64, 15: tileK = 16, 21: tileJ = 8, 69: sche = static, 75: chu = 19, 93: OrBlock = 1
[     1s]    INFO OpenTunerToolLocus: Run cfg_id: 346 time: 405.77888 cc: X cfg: 9: tileI = 256, 15: tileK = 64, 21: tileJ = 32, 69: sche = static, 75: chu = 19, 93: OrBlock = 0
[     1s]    INFO OpenTunerToolLocus: Run cfg_id: 347 time: 540.04622 cc: X cfg: 9: tileI = 256, 15: tileK = 32, 21: tileJ = 32, 69: sche = dynamic, 75: chu = 17, 93: OrBlock = 0
[     1s]    INFO OpenTunerToolLocus: Run cfg_id: 348 time: 685.63509 cc: X cfg: 9: tileI = 256, 15: tileK = 16, 21: tileJ = 64, 69: sche = static, 75: chu = 1, 93: OrBlock = 0
[     1s]    INFO OpenTunerToolLocus: Run cfg_id: 349 time: 1447.13712 cc: X cfg: 9: tileI = 256, 15: tileK = 128, 21: tileJ = 128, 69: sche = dynamic, 75: chu = 17, 93: OrBlock = 1
[     1s]    INFO OpenTunerToolLocus: Run cfg_id: 350 time: 1157.26113 cc: X cfg: 9: tileI = 128, 15: tileK = 2, 21: tileJ = 512, 69: sche = dynamic, 75: chu = 12, 93: OrBlock = 0
[     1s]    INFO OpenTunerToolLocus: Run cfg_id: 351 time: 533.80704 cc: X cfg: 9: tileI = 256, 15: tileK = 32, 21: tileJ = 32, 69: sche = dynamic, 75: chu = 15, 93: OrBlock = 0
[     1s]    INFO OpenTunerToolLocus: Run cfg_id: 352 time: 825.58012 cc: X cfg: 9: tileI = 32, 15: tileK = 256, 21: tileJ = 256, 69: sche = static, 75: chu = 28, 93: OrBlock = 1
[     1s]    INFO OpenTunerToolLocus: Run cfg_id: 353 time: 449.10502 cc: X cfg: 9: tileI = 512, 15: tileK = 64, 21: tileJ = 32, 69: sche = static, 75: chu = 20, 93: OrBlock = 0
[     1s]    INFO OpenTunerToolLocus: Run cfg_id: 354 time: 3511.04093 cc: X cfg: 9: tileI = 64, 15: tileK = 2, 21: tileJ = 8, 69: sche = static, 75: chu = 1, 93: OrBlock = 0
[     1s]    INFO OpenTunerToolLocus: Run cfg_id: 355 time: 414.39915 cc: X cfg: 9: tileI = 256, 15: tileK = 64, 21: tileJ = 32, 69: sche = dynamic, 75: chu = 7, 93: OrBlock = 0
[     1s]    INFO OpenTunerToolLocus: Run cfg_id: 356 time: 2685.956 cc: X cfg: 9: tileI = 16, 15: tileK = 16, 21: tileJ = 2, 69: sche = static, 75: chu = 32, 93: OrBlock = 1
[     1s]    INFO OpenTunerToolLocus: Run cfg_id: 357 time: 435.73785 cc: X cfg: 9: tileI = 256, 15: tileK = 512, 21: tileJ = 32, 69: sche = static, 75: chu = 17, 93: OrBlock = 0
[     1s]    INFO OpenTunerToolLocus: Run cfg_id: 358 time: 702.68011 cc: X cfg: 9: tileI = 512, 15: tileK = 256, 21: tileJ = 256, 69: sche = dynamic, 75: chu = 1, 93: OrBlock = 0
[     1s]    INFO OpenTunerToolLocus: Run cfg_id: 359 time: 1320.04404 cc: X cfg: 9: tileI = 8, 15: tileK = 64, 21: tileJ = 32, 69: sche = static, 75: chu = 23, 93: OrBlock = 0
[     1s]    INFO OpenTunerToolLocus: Run cfg_id: 360 time: 1158.9582 cc: X cfg: 9: tileI = 64, 15: tileK = 512, 21: tileJ = 8, 69: sche = static, 75: chu = 5, 93: OrBlock = 0
[     1s]    INFO OpenTunerToolLocus: Run cfg_id: 361 time: 2596.5929 cc: X cfg: 9: tileI = 64, 15: tileK = 64, 21: tileJ = 2, 69: sche = dynamic, 75: chu = 17, 93: OrBlock = 0
[     1s]    INFO OpenTunerToolLocus: Run cfg_id: 362 time: 1281.92306 cc: X cfg: 9: tileI = 8, 15: tileK = 128, 21: tileJ = 16, 69: sche = dynamic, 75: chu = 1, 93: OrBlock = 0
[     1s]    INFO OpenTunerToolLocus: Run cfg_id: 363 time: 3839.20288 cc: X cfg: 9: tileI = 256, 15: tileK = 64, 21: tileJ = 4, 69: sche = dynamic, 75: chu = 17, 93: OrBlock = 1
[     1s]    INFO OpenTunerToolLocus: Run cfg_id: 364 time: 1622.03979 cc: X cfg: 9: tileI = 128, 15: tileK = 32, 21: tileJ = 8, 69: sche = static, 75: chu = 29, 93: OrBlock = 0
[     1s]    INFO OpenTunerToolLocus: Run cfg_id: 365 time: 950.31214 cc: X cfg: 9: tileI = 256, 15: tileK = 2, 21: tileJ = 32, 69: sche = dynamic, 75: chu = 17, 93: OrBlock = 0
[     1s]    INFO OpenTunerToolLocus: Run cfg_id: 366 time: 876.97291 cc: X cfg: 9: tileI = 16, 15: tileK = 32, 21: tileJ = 32, 69: sche = dynamic, 75: chu = 32, 93: OrBlock = 0
[     1s]    INFO OpenTunerToolLocus: Run cfg_id: 367 time: 1163.52201 cc: X cfg: 9: tileI = 128, 15: tileK = 2, 21: tileJ = 512, 69: sche = dynamic, 75: chu = 19, 93: OrBlock = 0
[     1s]    INFO OpenTunerToolLocus: Run cfg_id: 368 time: 5333.33302 cc: X cfg: 9: tileI = 4, 15: tileK = 2, 21: tileJ = 2, 69: sche = static, 75: chu = 11, 93: OrBlock = 1
[     1s]    INFO OpenTunerToolLocus: Run cfg_id: 369 time: 819.96202 cc: X cfg: 9: tileI = 256, 15: tileK = 64, 21: tileJ = 32, 69: sche = dynamic, 75: chu = 30, 93: OrBlock = 1
[     1s]    INFO OpenTunerToolLocus: Run cfg_id: 370 time: 880.64504 cc: X cfg: 9: tileI = 16, 15: tileK = 64, 21: tileJ = 32, 69: sche = static, 75: chu = 17, 93: OrBlock = 0
[     1s]    INFO OpenTunerToolLocus: Run cfg_id: 371 time: 1334.14698 cc: X cfg: 9: tileI = 4, 15: tileK = 32, 21: tileJ = 512, 69: sche = dynamic, 75: chu = 24, 93: OrBlock = 0
[     1s]    INFO OpenTunerToolLocus: Run cfg_id: 372 time: 2678.09105 cc: X cfg: 9: tileI = 128, 15: tileK = 256, 21: tileJ = 2, 69: sche = dynamic, 75: chu = 5, 93: OrBlock = 0
[     1s]    INFO OpenTunerToolLocus: Run cfg_id: 373 time: 695.41597 cc: X cfg: 9: tileI = 512, 15: tileK = 512, 21: tileJ = 512, 69: sche = static, 75: chu = 28, 93: OrBlock = 0
[     1s]    INFO OpenTunerToolLocus: Run cfg_id: 374 time: 2674.37601 cc: X cfg: 9: tileI = 32, 15: tileK = 256, 21: tileJ = 2, 69: sche = dynamic, 75: chu = 1, 93: OrBlock = 0
[     1s]    INFO OpenTunerToolLocus: Run cfg_id: 375 time: 1895.1149 cc: X cfg: 9: tileI = 64, 15: tileK = 2, 21: tileJ = 512, 69: sche = static, 75: chu = 26, 93: OrBlock = 1
[     1s]    INFO OpenTunerToolLocus: Run cfg_id: 376 time: 2417.00506 cc: X cfg: 9: tileI = 512, 15: tileK = 64, 21: tileJ = 8, 69: sche = dynamic, 75: chu = 29, 93: OrBlock = 0
[     1s]    INFO OpenTunerToolLocus: Run cfg_id: 377 time: 428.57814 cc: X cfg: 9: tileI = 512, 15: tileK = 64, 21: tileJ = 32, 69: sche = dynamic, 75: chu = 9, 93: OrBlock = 0
[     1s]    INFO OpenTunerToolLocus: Run cfg_id: 378 time: 1738.49583 cc: X cfg: 9: tileI = 2, 15: tileK = 256, 21: tileJ = 256, 69: sche = static, 75: chu = 1, 93: OrBlock = 1
[     1s]    INFO OpenTunerToolLocus: Run cfg_id: 379 time: 4287.81509 cc: X cfg: 9: tileI = 2, 15: tileK = 2, 21: tileJ = 4, 69: sche = static, 75: chu = 29, 93: OrBlock = 1
[     1s]    INFO OpenTunerToolLocus: Run cfg_id: 380 time: 791.98098 cc: X cfg: 9: tileI = 256, 15: tileK = 4, 21: tileJ = 32, 69: sche = dynamic, 75: chu = 28, 93: OrBlock = 0
[     1s]    INFO OpenTunerToolLocus: Run cfg_id: 381 time: 1153.70202 cc: X cfg: 9: tileI = 128, 15: tileK = 2, 21: tileJ = 512, 69: sche = static, 75: chu = 23, 93: OrBlock = 0
[     1s]    INFO OpenTunerToolLocus: Run cfg_id: 382 time: 646.74592 cc: X cfg: 9: tileI = 256, 15: tileK = 128, 21: tileJ = 64, 69: sche = dynamic, 75: chu = 5, 93: OrBlock = 0
[     1s]    INFO OpenTunerToolLocus: Run cfg_id: 383 time: 554.19803 cc: X cfg: 9: tileI = 256, 15: tileK = 16, 21: tileJ = 32, 69: sche = dynamic, 75: chu = 3, 93: OrBlock = 0
[     1s]    INFO OpenTunerToolLocus: Run cfg_id: 384 time: 716.84408 cc: X cfg: 9: tileI = 64, 15: tileK = 32, 21: tileJ = 128, 69: sche = static, 75: chu = 3, 93: OrBlock = 0
[     1s]    INFO OpenTunerToolLocus: Run cfg_id: 385 time: 673.67792 cc: X cfg: 9: tileI = 512, 15: tileK = 512, 21: tileJ = 64, 69: sche = dynamic, 75: chu = 2, 93: OrBlock = 0
[     1s]    INFO OpenTunerToolLocus: Run cfg_id: 386 time: 715.11412 cc: X cfg: 9: tileI = 128, 15: tileK = 256, 21: tileJ = 128, 69: sche = static, 75: chu = 12, 93: OrBlock = 0
[     1s]    INFO OpenTunerToolLocus: Run cfg_id: 387 time: 1355.15499 cc: X cfg: 9: tileI = 4, 15: tileK = 2, 21: tileJ = 512, 69: sche = static, 75: chu = 2, 93: OrBlock = 1
[     1s]    INFO OpenTunerToolLocus: Run cfg_id: 388 time: 722.5399 cc: X cfg: 9: tileI = 64, 15: tileK = 64, 21: tileJ = 128, 69: sche = static, 75: chu = 11, 93: OrBlock = 0
[     1s]    INFO OpenTunerToolLocus: Run cfg_id: 389 time: 559.59797 cc: X cfg: 9: tileI = 32, 15: tileK = 64, 21: tileJ = 32, 69: sche = dynamic, 75: chu = 11, 93: OrBlock = 0
[     1s]    INFO OpenTunerToolLocus: Run cfg_id: 390 time: 670.98808 cc: X cfg: 9: tileI = 512, 15: tileK = 512, 21: tileJ = 64, 69: sche = dynamic, 75: chu = 22, 93: OrBlock = 0
[     1s]    INFO OpenTunerToolLocus: Run cfg_id: 391 time: 639.25099 cc: X cfg: 9: tileI = 16, 15: tileK = 8, 21: tileJ = 16, 69: sche = static, 75: chu = 32, 93: OrBlock = 1
[     1s]    INFO OpenTunerToolLocus: Run cfg_id: 392 time: 699.74303 cc: X cfg: 9: tileI = 256, 15: tileK = 64, 21: tileJ = 512, 69: sche = dynamic, 75: chu = 7, 93: OrBlock = 0
[     1s]    INFO OpenTunerToolLocus: Run cfg_id: 393 time: 1664.34002 cc: X cfg: 9: tileI = 64, 15: tileK = 128, 21: tileJ = 8, 69: sche = static, 75: chu = 19, 93: OrBlock = 0
[     1s]    INFO OpenTunerToolLocus: Run cfg_id: 394 time: 1322.08705 cc: X cfg: 9: tileI = 8, 15: tileK = 64, 21: tileJ = 32, 69: sche = dynamic, 75: chu = 4, 93: OrBlock = 0
[     1s]    INFO OpenTunerToolLocus: Run cfg_id: 395 time: 714.41388 cc: X cfg: 9: tileI = 256, 15: tileK = 16, 21: tileJ = 512, 69: sche = static, 75: chu = 1, 93: OrBlock = 0
[     1s]    INFO OpenTunerToolLocus: Run cfg_id: 396 time: 2057.79099 cc: X cfg: 9: tileI = 2, 15: tileK = 2, 21: tileJ = 512, 69: sche = dynamic, 75: chu = 32, 93: OrBlock = 0
[     1s]    INFO OpenTunerToolLocus: Run cfg_id: 397 time: 704.91982 cc: X cfg: 9: tileI = 32, 15: tileK = 256, 21: tileJ = 256, 69: sche = static, 75: chu = 20, 93: OrBlock = 0
[     1s]    INFO OpenTunerToolLocus: Run cfg_id: 398 time: 713.3019 cc: X cfg: 9: tileI = 64, 15: tileK = 32, 21: tileJ = 128, 69: sche = static, 75: chu = 10, 93: OrBlock = 0
[     1s]    INFO OpenTunerToolLocus: Run cfg_id: 399 time: 2684.42893 cc: X cfg: 9: tileI = 256, 15: tileK = 256, 21: tileJ = 2, 69: sche = dynamic, 75: chu = 1, 93: OrBlock = 0
[     1s]    INFO OpenTunerToolLocus: Run cfg_id: 400 time: 849.62392 cc: X cfg: 9: tileI = 16, 15: tileK = 32, 21: tileJ = 64, 69: sche = static, 75: chu = 22, 93: OrBlock = 1
[     1s]    INFO OpenTunerToolLocus: Run cfg_id: 401 time: 725.55614 cc: X cfg: 9: tileI = 512, 15: tileK = 32, 21: tileJ = 256, 69: sche = dynamic, 75: chu = 1, 93: OrBlock = 0
[     1s]    INFO OpenTunerToolLocus: Run cfg_id: 402 time: 2775.32816 cc: X cfg: 9: tileI = 4, 15: tileK = 512, 21: tileJ = 8, 69: sche = static, 75: chu = 16, 93: OrBlock = 0
[     1s]    INFO OpenTunerToolLocus: Run cfg_id: 403 time: 2116.0481 cc: X cfg: 9: tileI = 4, 15: tileK = 64, 21: tileJ = 32, 69: sche = dynamic, 75: chu = 17, 93: OrBlock = 1
[     1s]    INFO OpenTunerToolLocus: Run cfg_id: 404 time: 628.71814 cc: X cfg: 9: tileI = 512, 15: tileK = 16, 21: tileJ = 16, 69: sche = dynamic, 75: chu = 1, 93: OrBlock = 1
[     1s]    INFO OpenTunerToolLocus: Run cfg_id: 405 time: 1669.74092 cc: X cfg: 9: tileI = 128, 15: tileK = 32, 21: tileJ = 8, 69: sche = static, 75: chu = 12, 93: OrBlock = 0
[     1s]    INFO OpenTunerToolLocus: Run cfg_id: 406 time: 874.90916 cc: X cfg: 9: tileI = 16, 15: tileK = 16, 21: tileJ = 16, 69: sche = dynamic, 75: chu = 7, 93: OrBlock = 1
[     1s]    INFO OpenTunerToolLocus: Run cfg_id: 407 time: 819.29302 cc: X cfg: 9: tileI = 256, 15: tileK = 64, 21: tileJ = 32, 69: sche = dynamic, 75: chu = 15, 93: OrBlock = 1
[     1s]    INFO OpenTunerToolLocus: Run cfg_id: 408 time: 1419.60883 cc: X cfg: 9: tileI = 256, 15: tileK = 256, 21: tileJ = 512, 69: sche = static, 75: chu = 32, 93: OrBlock = 1
[     1s]    INFO OpenTunerToolLocus: Run cfg_id: 409 time: 2736.88602 cc: X cfg: 9: tileI = 16, 15: tileK = 32, 21: tileJ = 2, 69: sche = static, 75: chu = 27, 93: OrBlock = 0
[     1s]    INFO OpenTunerToolLocus: Run cfg_id: 410 time: 1706.15292 cc: X cfg: 9: tileI = 128, 15: tileK = 8, 21: tileJ = 8, 69: sche = static, 75: chu = 32, 93: OrBlock = 0
[     1s]    INFO OpenTunerToolLocus: Run cfg_id: 411 time: 788.35917 cc: X cfg: 9: tileI = 256, 15: tileK = 4, 21: tileJ = 32, 69: sche = dynamic, 75: chu = 15, 93: OrBlock = 0
[     1s]    INFO OpenTunerToolLocus: Run cfg_id: 412 time: 2741.23406 cc: X cfg: 9: tileI = 512, 15: tileK = 256, 21: tileJ = 2, 69: sche = static, 75: chu = 5, 93: OrBlock = 0
[     1s]    INFO OpenTunerToolLocus: Run cfg_id: 413 time: 458.13799 cc: X cfg: 9: tileI = 512, 15: tileK = 512, 21: tileJ = 32, 69: sche = dynamic, 75: chu = 1, 93: OrBlock = 0
[     1s]    INFO OpenTunerToolLocus: Run cfg_id: 414 time: 2730.299 cc: X cfg: 9: tileI = 32, 15: tileK = 64, 21: tileJ = 2, 69: sche = dynamic, 75: chu = 1, 93: OrBlock = 0
[     1s]    INFO OpenTunerToolLocus: Run cfg_id: 415 time: 2053.73478 cc: X cfg: 9: tileI = 2, 15: tileK = 2, 21: tileJ = 512, 69: sche = static, 75: chu = 26, 93: OrBlock = 0
[     1s]    INFO OpenTunerToolLocus: Run cfg_id: 416 time: 645.7479 cc: X cfg: 9: tileI = 512, 15: tileK = 128, 21: tileJ = 64, 69: sche = dynamic, 75: chu = 14, 93: OrBlock = 0
[     1s]    INFO OpenTunerToolLocus: Run cfg_id: 417 time: 497.92385 cc: X cfg: 9: tileI = 64, 15: tileK = 64, 21: tileJ = 32, 69: sche = dynamic, 75: chu = 17, 93: OrBlock = 1
[     1s]    INFO OpenTunerToolLocus: Run cfg_id: 418 time: 5371.01698 cc: X cfg: 9: tileI = 512, 15: tileK = 256, 21: tileJ = 2, 69: sche = static, 75: chu = 32, 93: OrBlock = 1
